{
  "array": [
    {
      "title": "The Paradime explained!",
      "details": "Paradime is a 1 week short term goal that we set for you to do a habit for 1 week. Paradime is also the story of Colin who aspires to become a better person in 1 week. His luck on a day depends on whether you completed your habit or not. \n If you still don’t get it, we are just aiming to motivate you by simulating the story of Colin Mason whose life is affected based on your actions. This is similar to reminders that you get for doing habit. We have replaced the reminder with a byte sized chapter for each day. \n The stories are quasi interactive like “Choose your own adventure” apps, except that it doesn’t affect overall story. Instead, whether you do habit or not, affects the story. The story flows based on your choice of behaviour not your choices of clicking options. We believe stories are powerful and so this should be pretty good motivation.",
      "icon": "add",
      "showDetails": false
    },
    {
      "title": "We already have reminder apps, why this one?",
      "details": "Reminders do work. But for a person who is a procrastinator, a reminder doesn’t always work. Many of us are unable to wake up using alarms although it reminds us the time that we want to get up. We have million ways to remind ourselves, if that’s the one that stops us being punctual. We believe it is our mental block. We need more than just reminders. We need the right motivation.",
      "icon": "add",
      "showDetails": false
    },
    {
      "title": "What’s with short week duration of goal?",
      "details": "We don’t want to try 66 days, not 21 days but just 1 week. This is not going to help for automacity but it will give enough motivation to push you. This is simple and achievable.",
      "icon": "add",
      "showDetails": false
    },
    {
      "title": "Why just 1 goal, why not try many goals?",
      "details": "We don’t want you to enter 5 goals, not 3 goals but 1. Just this is enough to start. If you have many goals, it is difficult to manage and hence we shall keep it absolutely simple. Do just 1 for now.",
      "icon": "add",
      "showDetails": false
    },
    {
      "title": "Why should you track your mood?",
      "details": "Enter journals and moods to track how you feel throughout the week. Even if you do not have anything to enter in journal, you can still record your mood by selecting an emoticon. You will be able to see how your entire day will be changing positively based on your goal completion.",
      "icon": "add",
      "showDetails": false
    },
    {
      "title": "What is the meaning of The Paradime?",
      "details": "For the goal section of this game, it is the stylised version of word “Paradigm”. For the story section, the words “Para” and “Dime” are taken from “Parellel Dimension” as the story happens on an other fantasy world (Rentri). You could also say “Para dime” in Spanish means “To tell me”.",
      "icon": "add",
      "showDetails": false
    },
    {
      "title": "What is the meaning of The Paradime logo?",
      "details": "Inspired from Yin-Yang which is a symbol of duality in Taoism philosophy. It is explained that the universe is governed by a cosmic duality, sets of two opposing and complementing principles or cosmic energies that can be observed in nature. While Yin and Yang shows things are sequential, our app is about two characters, the user and fictional character Colin who support each other. Hence we used parallelogram version of Yin and Yang instead of a circle. It also shows word P and D meaning “Parellel Dimension”. The colors blue and yellow are merged to form green which represents growth.",
      "icon": "add",
      "showDetails": false
    },
    {
      "title": "What’s new?",
      "details": "Currently you are using the early access version. Next update will be available soon. We are excited to start the journey along with you, and will be grateful if it helped you even a little. Please do let us know your feedback which will keep us motivated and so we can grow as better individuals together.",
      "icon": "add",
      "showDetails": false
    }
  ]
}