{
  "array": [
    {
      "message": "Welcome!"
    },
    {
      "message": "Welcome to Paradime"
    },
    {
      "message": "You have successfully started a new challenge for the next 7 days with the Paradime!"
    },
    {
      "message": "How badly you want to complete the challenge?"
    },
    {
      "message": "Don't forget to check the About tab if you have any doubts about this game."
    },
    {
      "message": "We are not sure if we can call this as a game, as it is more than a game. This is also a Story. "
    },
    {
      "message": "We are not sure if this can be called a story, as it has an interactive design. "
    },
    {
      "message": "Interactive story? That doesn't tell about the habits part"
    },
    {
      "message": "After all the efforts, you are probably not seeing any progress yet. Or maybe you are seeing progress. Either way, don't feel excited or disappointed for now. Think neutral! Take one step at a time. You are going to make it! "
    },
    {
      "message": "Nothing to get confused. The main aim of Paradime is to motivate you to form or quit a habit for 7 days"
    },
    {
      "message": "You can still call this a game. If this is a game, we need to have a way to win this. If it is a story, it should have a climax."
    },
    {
      "message": "If you are successful with your routine for 7 days, then that is the way to win this game or to see the actual climax of the story. "
    },
    {
      "message": "I am going to give you more than 7 different story paths and you will read them based on your actions"
    },
    {
      "message": "This is similar to reminder apps as we tell you in about page. In reminder apps, you enter the list of habits and it sends you reminders"
    },
    {
      "message": "Reminders are required if you are either having short term memory or if you have no focus to do the action you wanted"
    },
    {
      "message": "Evidently it is because you don't have the focus to do the habits for 7 days. So we don't want to send reminders like other apps "
    },
    {
      "message": "Do you think a phone can be used to improve your daily routine? Do you believe that?"
    },
    {
      "message": "Frankly speaking you know that it is the opposite. Phones stop you from following a healthy routine most of the cases"
    },
    {
      "message": "What is your screen time yesterday?"
    },
    {
      "message": "Many of you will tell at least 2 hours per day. Some show 4 - 5 hours per day."
    },
    {
      "message": "Multiply this by week, month or year and see how much time you are on phones. Easily 700 to 1000 hours of our precious life we spend every year."
    },
    {
      "message": "You know that 10,000 hours rule? You spend 10,000 hours in any field to achieve mastery and seeing success."
    },
    {
      "message": "Gladwell, the author of bestselling 'Outliers' book says the musical band Beatles spent 10,000 hours to become a successful band."
    },
    {
      "message": "Of course you will say there is luck involved in their success and not just putting the efforts and expecting things to happen."
    },
    {
      "message": "But we can't control luck. Because we don't know how luck works. Or who gets it. Nothing we know about this. "
    },
    {
      "message": "What if there is someone who can give us luck?"
    },
    {
      "message": "What if you could give luck to someone? "
    },
    {
      "message": "At least some fictional character in the story?"
    },
    {
      "message": "Yes you could do that. To understand how it works, you can control the luck of Colin who is a character in Paradime story."
    },
    {
      "message": "By doing your routine, you will bring luck to him. His day will be a lucky day if you finish your habit. If you didn't he will be in jinx and curse."
    },
    {
      "message": "Colin wants to improve and become a better person in the next 7 days, Will you help him?"
    },
    {
      "message": "A habit is first a wanderer, then a guest, and finally the boss. - Hungarian Proverb "
    },
    {
      "message": "How we spend our days is how we spend our lives  – Charlie Gilkey"
    },
    {
      "message": "Motivation is what gets you started. Habit is what keeps you going. – Jim Rohn"
    },
    {
      "message": "Plenty of quotes, self-help books, motivational speeches. But no matter what you do with these, nothing is going to happen when you take steps. "
    },
    {
      "message": "So you ask me what is the way to make that happen? "
    },
    {
      "message": "We are not scientists, doctors, or experts in psychology. "
    },
    {
      "message": "I was a huge procrastinator. "
    },
    {
      "message": " I was lazy at everything and could not plan and do anything. "
    },
    {
      "message": "I tried to understand why I was a big procrastinator. It looks like we are not really doing our routine because it is boring. "
    },
    {
      "message": "It is not fun to wake up at 5 AM, to maintain a diet, to go for jogging, lift weights, practice public speaking, training in martial arts, reading lessons or writing stories. "
    },
    {
      "message": "All these activities involve a lot of focus and not fun most of the cases, therefore we procrastinate. "
    },
    {
      "message": "But it is fine that is not fun and easy. If all these tasks are easy, then everyone will do it, and these will no longer be an achievement and you cannot be special. "
    },
    {
      "message": "You know that you faced situations, when you worked on your favourite task, you could go all in. Without eating, sleeping, or hanging out with your friends all day for entertainment. "
    },
    {
      "message": "That is what motivation does to us. Not just mindless efforts are going to help. First of all, you have to be okay to do it with all your heart. "
    },
    {
      "message": "Be determined, we are doing it this time. We will achieve it. "
    },
    {
      "message": "We are assigning this as your short term goal."
    },
    {
      "message": "If you do your goal, then Colin is going to win, it is a success for me, and then that's the successful completion of the story. "
    }
  ]
}