{
  "array": [
    {
      "userId": "140000198202211138",
      "userName": "Note",
      "message": "All characters and other entities appearing in this work are fictitious. Any resemblance to real persons, dead or alive, or other real-life entities, past or present, is purely coincidental.",
      "type": "message",
      "switch": "no",
      "Day": 1
    },
    {
      "userId": "140000198202211138",
      "userName": "Note",
      "message": "Please wear headphones for a better experience.",
      "type": "message",
      "switch": "no",
      "interimAudioInStory": "yes",
      "audioSrc": "Starryn.ogg",
      "Day": 1
    },
    {
      "type": "interimImage",
      "interimImageInStory": "yes",
      "imageSrc": "chapter1_01.jpeg",
      "Day": 1
    },
    {
      "userId": "140000198202211138",
      "userName": "Note",
      "message": "Location — Colin’s room in Hotel Eirene, Titania City, Avadia, Planet Rentri.",
      "type": "message",
      "switch": "no",
      "Day": 1
    },
    {
      "userId": "140000198202211138",
      "userName": "Note",
      "message": "Time — 10:31 A.M, 8th October, 1844. ",
      "type": "message",
      "switch": "no",
      "Day": 1
    },
    {
      "userId": "140000198202211138",
      "userName": "Note",
      "message": "All TV stations stop playing normal programming due to unforeseen circumstances.",
      "type": "message",
      "switch": "no",
      "Day": 1
    },
    {
      "userId": "140000198202211138",
      "userName": "TV",
      "message": "Emergency broadcast in progress.. This is an emergency broadcast from the AVBC.",
      "type": "message",
      "switch": "no",
      "Day": 1
    },
    {
      "userId": "140000198202211138",
      "userName": "TV",
      "message": "This message is broadcasted by the Avadia Government.",
      "type": "message",
      "switch": "no",
      "Day": 1
    },
    {
      "userId": "140000198202211138",
      "userName": "TV",
      "message": "A paranormal anomaly which could affect the entire city is detected.",
      "type": "message",
      "switch": "no",
      "Day": 1
    },
    {
      "userId": "140000198202211138",
      "userName": "TV",
      "message": "We have received multiple reports of sightings of unidentified mysterious giant flying creatures in the city of Akrasia today.",
      "type": "message",
      "switch": "no",
      "Day": 1
    },
    {
      "userId": "140000198202211138",
      "userName": "TV",
      "message": "If these creatures get in contact with any civilian, we are not sure if it will pose any threat.",
      "type": "message",
      "switch": "no",
      "Day": 1
    },
    {
      "userId": "140000198202211138",
      "userName": "TV",
      "message": "We have not seen any threats from these monstrous creatures till now but as safety precautions, civilians are prohibited from visiting Akrasia. All the routes to Akrasia are disconnected.",
      "type": "message",
      "switch": "no",
      "Day": 1
    },
    {
      "userId": "140000198202211138",
      "userName": "TV",
      "message": "Civilians in Akrasia are advised to stay in their homes. Please lock all your doors and windows and switch off all the lights.",
      "type": "message",
      "switch": "no",
      "Day": 1
    },
    {
      "userId": "140000198202211138",
      "userName": "TV",
      "message": "This is not a test.",
      "type": "message",
      "switch": "no",
      "Day": 1
    },
    {
      "userId": "140000198202211138",
      "userName": "TV",
      "message": "The current threat level is MODERATE.",
      "type": "message",
      "switch": "no",
      "Day": 1
    },
    {
      "userId": "140000198202211138",
      "userName": "TV",
      "message": "Please ensure that your TV is ON and wait for further instructions.",
      "type": "message",
      "switch": "no",
      "Day": 1
    },
    {
      "userId": "140000198202211138",
      "userName": "TV",
      "message": "This is the emergency broadcast system.",
      "type": "message",
      "switch": "no",
      "Day": 1
    },
    {
      "type": "interimImage",
      "interimImageInStory": "yes",
      "imageSrc": "chapter1_02.jpeg",
      "Day": 1
    },
    {
      "userId": "210000198410281948",
      "userName": "Colin",
      "message": "What the hell???",
      "type": "message",
      "switch": "no",
      "Day": 1
    },
    {
      "userId": "140000198202211138",
      "userName": "Note",
      "message": "Colin tries to call his friend Ivan.",
      "type": "message",
      "switch": "no",
      "Day": 1
    },
    {
      "userId": "210000198410281948",
      "userName": "Colin",
      "message": "Phone lines are disconnected. I am panicking now.",
      "type": "messagemood",
      "switch": "no",
      "Day": 1,
      "behaviours": {
        "happiness": "0",
        "health": "0.3",
        "romance": "0.1",
        "fear": "0.5",
        "wish": "0",
        "wantedLevel": "0",
        "balance": "$5744.00"
      }
    },
    {
      "type": "interimImage",
      "interimImageInStory": "yes",
      "imageSrc": "chapter1_03.jpeg",
      "Day": 1
    },
    {
      "userId": "140000198202211138",
      "userName": "Note",
      "message": "Colin's fear meter is updated. Go back to see his fear meter now.",
      "type": "message",
      "switch": "no",
      "Day": 1
    },
    {
      "userId": "140000198202211138",
      "userName": "Note",
      "message": "Emergency broadcast message is replayed on a loop continuously.",
      "type": "message",
      "switch": "no",
      "Day": 1
    },
    {
      "userId": "140000198202211138",
      "userName": "Note",
      "message": "After 2.30 hours.",
      "type": "message",
      "switch": "no",
      "Day": 1
    },
    {
      "userId": "140000198202211138",
      "userName": "TV",
      "message": "Normal broadcasting by AVBC resumed after the emergency update.",
      "type": "message",
      "switch": "no",
      "Day": 1
    },
    {
      "userId": "140000198202211138",
      "userName": "Note",
      "message": "AVBC channel resumes its normal broadcasting.",
      "type": "message",
      "switch": "no",
      "Day": 1
    },
    {
      "userId": "210000198410281948",
      "userName": "Colin",
      "message": "Is everything back to normal just like that?",
      "type": "message",
      "switch": "no",
      "Day": 1
    },
    {
      "userId": "210000198410281948",
      "userName": "Colin",
      "message": "How about phones? Phones working?",
      "type": "message",
      "switch": "no",
      "Day": 1
    },
    {
      "userId": "140000198202211138",
      "userName": "Note",
      "message": "Colin tries to call his friend Ivan Rodrigues.",
      "type": "message",
      "switch": "no",
      "Day": 1
    },
    {
      "userId": "140000198202211138",
      "userName": "Note",
      "message": "Ivan's phone line is busy.",
      "type": "message",
      "switch": "no",
      "Day": 1
    },
    {
      "userId": "210000198410281948",
      "userName": "Colin",
      "message": "I need to check the TV to know what's going on. ",
      "type": "message",
      "switch": "no",
      "Day": 1
    },
    {
      "userId": "140000198202211138",
      "userName": "Note",
      "message": "Colin switches on the TV.",
      "type": "message",
      "switch": "no",
      "Day": 1
    },
    {
      "userId": "140000198202211138",
      "userName": "TV",
      "message": "You are watching the AVBC news show hosted by Anchor Mina.",
      "type": "message",
      "switch": "no",
      "Day": 1
    },
    {
      "userId": "140000198202211138",
      "userName": "TV",
      "message": "We know the entire world is in panic mode because of the shocking UFO news, Stay tuned to our channel for updates!",
      "type": "message",
      "switch": "no",
      "Day": 1
    },
    {
      "type": "interimImage",
      "interimImageInStory": "yes",
      "imageSrc": "day1_11.png",
      "Day": 1
    },
    {
      "userId": "140000198202211138",
      "userName": "TV",
      "message": "We will be bringing you the updates related to this incident. We request you to stay tuned.",
      "type": "message",
      "switch": "no",
      "Day": 1
    },
    {
      "userId": "140000198202211138",
      "userName": "TV",
      "message": "We know that there are hundreds of scientists, researchers, geologists, military, and police authorities who are working to understand the cause of these mysterious incidents.",
      "type": "message",
      "switch": "no",
      "Day": 1
    },
    {
      "userId": "140000198202211138",
      "userName": "TV",
      "message": "We are not hearing from anyone about these and none seems to have a single clue.",
      "type": "message",
      "switch": "no",
      "Day": 1
    },
    {
      "userId": "140000198202211138",
      "userName": "TV",
      "message": "Is this an Alien, or a demon? Or is it a bird or unidentified endangered species? But we all see 3 white circles around the hip like a belt, which leaves that option out.  We will discuss this on our live debate show with our guests.",
      "type": "message",
      "switch": "no",
      "Day": 1
    },
    {
      "type": "interimImage",
      "interimImageInStory": "yes",
      "imageSrc": "day1_02.png",
      "Day": 1
    },
    {
      "userId": "140000198202211138",
      "userName": "Man 1 on TV",
      "message": "We have always heard stories of evils but none has shown solid proof. Now we see it is true. ",
      "type": "message",
      "switch": "no",
      "Day": 1
    },
    {
      "userId": "140000198202211138",
      "userName": "Man 2 on TV",
      "message": "What else could it be? Is there an explanation? ",
      "type": "message",
      "switch": "no",
      "Day": 1
    },
    {
      "userId": "140000198202211138",
      "userName": "Lady 1 on TV",
      "message": "It is the demons. ",
      "type": "message",
      "switch": "no",
      "Day": 1
    },
    {
      "userId": "140000198202211138",
      "userName": "Man 3 on TV",
      "message": "Witchcraft!",
      "type": "message",
      "switch": "no",
      "Day": 1
    },
    {
      "userId": "140000198202211138",
      "userName": "Man 2 on TV",
      "message": "It could be Aliens. Finally, we might have a confirmed contact",
      "type": "message",
      "switch": "no",
      "Day": 1
    },
    {
      "userId": "140000198202211138",
      "userName": "Man 4 on TV",
      "message": "Or dragons, or vampires. Or secret Government projects. ",
      "type": "message",
      "switch": "no",
      "Day": 1
    },
    {
      "userId": "140000198202211138",
      "userName": "Man 1 on TV",
      "message": "Secret Government projects? ",
      "type": "message",
      "switch": "no",
      "Day": 1
    },
    {
      "userId": "140000198202211138",
      "userName": "Man 4 on TV",
      "message": "Could be some hoax planned by Media. Don't waste my time?",
      "type": "message",
      "switch": "no",
      "Day": 1
    },
    {
      "userId": "140000198202211138",
      "userName": "Lady 1 on TV",
      "message": "So you don't believe in such things? Demons do exist. ",
      "type": "message",
      "switch": "no",
      "Day": 1
    },
    {
      "userId": "140000198202211138",
      "userName": "Man 4 on TV",
      "message": "No I don't believe in it. Can you prove that was a demon?",
      "type": "message",
      "switch": "no",
      "Day": 1
    },
    {
      "userId": "140000198202211138",
      "userName": "Lady 1 on TV ",
      "message": "Can you prove anyone that is not a demon?",
      "type": "message",
      "switch": "no",
      "Day": 1
    },
    {
      "userId": "140000198202211138",
      "userName": "Man 2 on TV",
      "message": "Whatever it is, I am terrified. I am not going to leave home.",
      "type": "message",
      "switch": "no",
      "Day": 1
    },
    {
      "userId": "140000198202211138",
      "userName": "Lady 1 on TV",
      "message": "Police should do something. We are unsafe here. ",
      "type": "message",
      "switch": "no",
      "Day": 1
    },
    {
      "userId": "140000198202211138",
      "userName": "Man 2 on TV",
      "message": "Oh wait, they might attack our home. We can't stay at home either. ",
      "type": "message",
      "switch": "no",
      "Day": 1
    },
    {
      "userId": "140000198202211138",
      "userName": "Lady 1 on TV",
      "message": "I always knew someday the world will see these demons. ",
      "type": "message",
      "switch": "no",
      "Day": 1
    },
    {
      "userId": "140000198202211138",
      "userName": "Man 4 on TV",
      "message": "So you are sure it is demons. You are linking this with the urban myth because you were told these stories in your childhood. ",
      "type": "message",
      "switch": "no",
      "Day": 1
    },
    {
      "userId": "140000198202211138",
      "userName": "Lady 1 on TV",
      "message": "Yes it is a demon!",
      "type": "message",
      "switch": "no",
      "Day": 1
    },
    {
      "userId": "140000198202211138",
      "userName": "Man 4 on TV",
      "message": "How can you be so sure? Instead of coming to conclusions, why not wait for the proof? What's next? You are also going to believe in urban legends which were told to us as FOAFlore like Black-eyed children, Slender man and even dog faced men? ",
      "type": "message",
      "switch": "no",
      "Day": 1
    },
    {
      "userId": "140000198202211138",
      "userName": "Lady 1 on TV",
      "message": "You seem to be a fool. You want proof for everything. Can't argue with someone like you.",
      "type": "message",
      "switch": "no",
      "Day": 1
    },
    {
      "userId": "140000198202211138",
      "userName": "Man 2 on TV",
      "message": "She is right. We cannot prove certain things. There are things that are beyond our human knowledge. Beyond what humanity could reach. ",
      "type": "message",
      "switch": "no",
      "Day": 1
    },
    {
      "userId": "140000198202211138",
      "userName": "News Anchor Mina on TV",
      "message": "We continue our debate show with famous Exorcist Fred Krueger and member of RETI Alien contact organisation Rami Gaillard.",
      "type": "message",
      "switch": "no",
      "Day": 1
    },
    {
      "userId": "140000198202211138",
      "userName": "News Anchor Mina on TV",
      "message": "Here is my question to Fred. What are these? What causes these creatures to appear? Are these a threat? ",
      "type": "message",
      "switch": "no",
      "Day": 1
    },
    {
      "type": "interimImage",
      "interimImageInStory": "yes",
      "imageSrc": "day1_03.png",
      "Day": 1
    },
    {
      "userId": "140000198202211138",
      "userName": "Fred on TV",
      "message": "I know what causes these.",
      "type": "message",
      "switch": "no",
      "Day": 1
    },
    {
      "userId": "140000198202211138",
      "userName": "Fred on TV",
      "message": "What do you think those 3 dots represent?",
      "type": "message",
      "switch": "no",
      "Day": 1
    },
    {
      "userId": "140000198202211138",
      "userName": "Fred on TV",
      "message": "It should be 666.",
      "type": "message",
      "switch": "no",
      "Day": 1
    },
    {
      "userId": "140000198202211138",
      "userName": "Fred on TV",
      "message": "This is because of Poltergeist activity by demons. ",
      "type": "message",
      "switch": "no",
      "Day": 1
    },
    {
      "userId": "140000198202211138",
      "userName": "Fred on TV",
      "message": "What will the scientists say? It is a hallucination, it is some chemical reaction, is this, it is that, but did that get us anywhere? We should go for the exorcism. ",
      "type": "message",
      "switch": "no",
      "Day": 1
    },
    {
      "userId": "140000198202211138",
      "userName": "News Anchor Mina on TV",
      "message": "Wait a minute, let us hear from Rami Gaillard. ",
      "type": "message",
      "switch": "no",
      "Day": 1
    },
    {
      "userId": "140000198202211138",
      "userName": "Fred on TV",
      "message": "Stop interrupting me, let me complete.",
      "type": "message",
      "switch": "no",
      "Day": 1
    },
    {
      "userId": "140000198202211138",
      "userName": "News Anchor Mina on TV",
      "message": "Sorry for interrupting, but we have to continue with Rami. There are no facts, but we have many such theories. Locals believe in numerous reasons such as witches, government projects, aliens, and even dragons. What do you say Mr. Rami?",
      "type": "message",
      "switch": "no",
      "Day": 1
    },
    {
      "userId": "140000198202211138",
      "userName": "News Anchor Mina on TV",
      "message": "Rami Gailliard is a member of RETI Communications association also called as Rentri Extra Terrestrial Communications association.",
      "type": "message",
      "switch": "no",
      "Day": 1
    },
    {
      "userId": "140000198202211138",
      "userName": "News Anchor Mina on TV",
      "message": "Can you hear us Mr.Rami?",
      "type": "message",
      "switch": "no",
      "Day": 1
    },
    {
      "userId": "140000198202211138",
      "userName": "Rami on TV",
      "message": "Yes I can hear you. Thanks for inviting me. ",
      "type": "message",
      "switch": "no",
      "Day": 1
    },
    {
      "userId": "140000198202211138",
      "userName": "Rami on TV",
      "message": "We have been telling everyone it is the Aliens but none believes us. ",
      "type": "message",
      "switch": "no",
      "Day": 1
    },
    {
      "userId": "140000198202211138",
      "userName": "Rami on TV",
      "message": "Over the past few weeks Aliens are beginning to make contact with us. ",
      "type": "message",
      "switch": "no",
      "Day": 1
    },
    {
      "userId": "140000198202211138",
      "userName": "Rami on TV",
      "message": "The purpose of their contact is not clear, but we know how they will make a contact. But if you don't know what to do, you will end up allowing them to take control of your brain. They could possess your brain and start controlling your body. ",
      "type": "message",
      "switch": "no",
      "Day": 1
    },
    {
      "userId": "140000198202211138",
      "userName": "Rami on TV",
      "message": "If you hear any voices in your head like laughing or screaming do not reply to them, contact us by calling the Communication of RETI helpline '170-114 97-117-100'.  ",
      "type": "message",
      "switch": "no",
      "Day": 1
    },
    {
      "userId": "140000198202211138",
      "userName": "Rami on TV",
      "message": " You don't have to believe me. Just close your eyes and repeat the words 'Possess me.'  ",
      "type": "messagemood",
      "switch": "no",
      "Day": 1,
      "behaviours": {
        "happiness": "0",
        "health": "0.3",
        "romance": "0.1",
        "fear": "0.8",
        "wish": "0",
        "wantedLevel": "0",
        "balance": "$5744.00"
      }
    },
    {
      "userId": "140000198202211138",
      "userName": "Note",
      "message": "Colin's fear meter is updated. Go back and check his fear meter.",
      "type": "message",
      "switch": "no",
      "Day": 1
    },
    {
      "userId": "210000198410281948",
      "userName": "Colin",
      "message": "Aliens? Even the thought of contacting them is scary..",
      "type": "message",
      "switch": "no",
      "Day": 1
    },
    {
      "userId": "210000198410281948",
      "userName": "Colin",
      "message": "I am scared a lot.  ",
      "type": "message",
      "switch": "no",
      "Day": 1
    },
    {
      "userId": "210000198410281948",
      "userName": "Colin",
      "message": "What is going on in this world? ",
      "type": "message",
      "switch": "no",
      "Day": 1
    },
    {
      "userId": "210000198410281948",
      "userName": "Colin",
      "message": "Will I be able to survive?  ",
      "type": "message",
      "switch": "no",
      "Day": 1
    },
    {
      "userId": "210000198410281948",
      "userName": "Colin",
      "message": "I am not able to breathe. The fear is increasing.  ",
      "type": "message",
      "switch": "no",
      "Day": 1
    },
    {
      "userId": "210000198410281948",
      "userName": "Colin",
      "message": "Wait a minute.. This is just news. Why do I fear?  ",
      "type": "message",
      "switch": "no",
      "Day": 1
    },
    {
      "userId": "210000198410281948",
      "userName": "Colin",
      "message": "I get fear even after knowing it is not directly affecting me.   ",
      "type": "message",
      "switch": "no",
      "Day": 1
    },
    {
      "userId": "210000198410281948",
      "userName": "Colin",
      "message": "Why do I fear a lot? I fear every time about everything ",
      "type": "message",
      "switch": "no",
      "Day": 1
    },
    {
      "userId": "210000198410281948",
      "userName": "Colin",
      "message": "I have no courage.  ",
      "type": "message",
      "switch": "no",
      "Day": 1
    },
    {
      "userId": "210000198410281948",
      "userName": "Colin",
      "message": "I want to be brave.  ",
      "type": "message",
      "switch": "no",
      "Day": 1
    },
    {
      "userId": "210000198410281948",
      "userName": "Colin",
      "message": "I want to change.  ",
      "type": "message",
      "switch": "no",
      "Day": 1
    },
    {
      "userId": "210000198410281948",
      "userName": "Colin",
      "message": "If I can change myself, I can change the world.  ",
      "type": "message",
      "switch": "no",
      "Day": 1
    },
    {
      "userId": "210000198410281948",
      "userName": "Colin",
      "message": "I can change.  ",
      "type": "message",
      "switch": "no",
      "Day": 1
    },
    {
      "userId": "210000198410281948",
      "userName": "Colin",
      "message": "So, now let me start with this news about Aliens.  ",
      "type": "message",
      "switch": "no",
      "Day": 1
    },
    {
      "userId": "210000198410281948",
      "userName": "Colin",
      "message": "They say we can contact by closing eyes and calling them?  ",
      "type": "message",
      "switch": "no",
      "Day": 1
    },
    {
      "userId": "210000198410281948",
      "userName": "Colin",
      "message": "I am going to try this.  ",
      "type": "message",
      "switch": "no",
      "Day": 1
    },
    {
      "userId": "210000198410281948",
      "userName": "Colin",
      "message": "I don't think there is some other world, so saying these won't work. ",
      "type": "message",
      "switch": "no",
      "Day": 1
    },
    {
      "userId": "210000198410281948",
      "userName": "Colin",
      "message": "Possess me!",
      "type": "message",
      "switch": "no",
      "Day": 1
    },
    {
      "userId": "210000198410281948",
      "userName": "Colin",
      "message": "Possess me!",
      "type": "message",
      "switch": "no",
      "Day": 1
    },
    {
      "userId": "210000198410281948",
      "userName": "Colin",
      "message": "Possess me!",
      "type": "message",
      "switch": "no",
      "Day": 1
    },
    {
      "type": "interimImage",
      "interimImageInStory": "yes",
      "imageSrc": "chapter1_04.jpeg",
      "Day": 1
    },
    {
      "userId": "140000198202211138",
      "userName": "Note",
      "message": "Colin closes his eyes and says.. ",
      "type": "message",
      "switch": "no",
      "Day": 1
    },
    {
      "userId": "210000198410281948",
      "userName": "Colin",
      "message": "Is anyone listening? ",
      "type": "message",
      "switch": "no",
      "Day": 1
    },
    {
      "userId": "210000198410281948",
      "userName": "Note",
      "message": "* Connected to outer world *",
      "type": "message",
      "switch": "no",
      "Day": 1
    },
    {
      "userId": "140000198202211138",
      "userName": "You",
      "message": [
        {
          "userId": "210000198410281948",
          "userName": "You",
          "message": "Hey, Colin, nice to meet you! ",
          "type": "message",
          "switch": "no",
          "Day": 1
        },
        {
          "userId": "210000198410281948",
          "userName": "You",
          "message": "Good day! ",
          "type": "message",
          "switch": "no",
          "Day": 1
        },
        {
          "userId": "210000198410281948",
          "userName": "You",
          "message": "Can you hear me?  ",
          "type": "message",
          "switch": "no",
          "Day": 1
        }
      ],
      "type": "choice",
      "switch": "no",
      "Day": 1,
      "interimAudioInStory": "yes",
      "audioSrc": "sound4.ogg"
    },
    {
      "userId": "210000198410281948",
      "userName": "Colin",
      "message": "Who's that?",
      "type": "messagemood",
      "switch": "no",
      "Day": 1
    },
    {
      "userId": "140000198202211138",
      "userName": "You",
      "message": [
        {
          "userId": "210000198410281948",
          "userName": "You",
          "message": "Mmmmmmmmmmmmmmmmmmmmm ",
          "type": "message",
          "switch": "no",
          "Day": 1
        },
        {
          "userId": "210000198410281948",
          "userName": "You",
          "message": "Eeeeeeeeeeeeeeeee ",
          "type": "message",
          "switch": "no",
          "Day": 1
        },
        {
          "userId": "210000198410281948",
          "userName": "You",
          "message": "Hahahahahahahahahh ",
          "type": "message",
          "switch": "no",
          "Day": 1
        }
      ],
      "type": "choice",
      "switch": "no",
      "Day": 1
    },
    {
      "userId": "140000198202211138",
      "userName": "Note",
      "message": "Colin gets shocked and starts breathing heavily in fear.",
      "type": "messagemood",
      "switch": "no",
      "Day": 1,
      "behaviours": {
        "happiness": "0",
        "health": "0.3",
        "romance": "0.1",
        "fear": "1",
        "wish": "0",
        "wantedLevel": "0",
        "balance": "$5744.00"
      }
    },
    {
      "userId": "140000198202211138",
      "userName": "Note",
      "message": "Colin's fear meter is updated. Go back and check his current mood.",
      "type": "message",
      "switch": "no",
      "Day": 1
    },
    {
      "userId": "140000198202211138",
      "userName": "Note",
      "message": "Colin waits for 15 minutes. ",
      "type": "message",
      "switch": "no",
      "Day": 1
    },
    {
      "userId": "140000198202211138",
      "userName": "Note",
      "message": "Colin calls the RETI service line and asks for help about extraterrestrial communication. ",
      "type": "messagemood",
      "switch": "no",
      "Day": 1,
      "behaviours": {
        "happiness": "0",
        "health": "0.5",
        "romance": "0.1",
        "fear": "0.7",
        "wish": "0",
        "wantedLevel": "0",
        "balance": "$5744.00"
      }
    },
    {
      "type": "interimImage",
      "interimImageInStory": "yes",
      "imageSrc": "day1_05.png",
      "Day": 1
    },
    {
      "userId": "140000198202211138",
      "userName": "Note",
      "message": "Colin starts explaining about the voice to the RETI executive Theodore Joe. ",
      "type": "message",
      "switch": "no",
      "Day": 1
    },
    {
      "userId": "210000198410281948",
      "userName": "Colin",
      "message": "I want to know about communicating with Aliens.",
      "type": "message",
      "switch": "no",
      "Day": 1
    },
    {
      "userId": "140000198202211138",
      "userName": "Theodore",
      "message": "I understand, what do you want to know?",
      "type": "message",
      "switch": "no",
      "Day": 1
    },
    {
      "userId": "210000198410281948",
      "userName": "Colin",
      "message": "I had contact with some Alien. I think it is a contact.",
      "type": "message",
      "switch": "no",
      "Day": 1
    },
    {
      "userId": "140000198202211138",
      "userName": "Theodore",
      "message": "May I know how and when it happened?",
      "type": "message",
      "switch": "no",
      "Day": 1
    },
    {
      "userId": "210000198410281948",
      "userName": "Colin",
      "message": "Today afternoon, I was hearing sounds like someone laughing.",
      "type": "message",
      "switch": "no",
      "Day": 1
    },
    {
      "userId": "140000198202211138",
      "userName": "Theodore",
      "message": "How do you say it is Aliens?",
      "type": "message",
      "switch": "no",
      "Day": 1
    },
    {
      "userId": "210000198410281948",
      "userName": "Colin",
      "message": "I just saw the show where Rami warned us about the communication. It sounded very similar to what he said. ",
      "type": "message",
      "switch": "no",
      "Day": 1
    },
    {
      "userId": "140000198202211138",
      "userName": "Theodore",
      "message": "Next time when you get the communication contact us as early as possible.",
      "type": "message",
      "switch": "no",
      "Day": 1
    },
    {
      "userId": "210000198410281948",
      "userName": "Colin",
      "message": "Sure",
      "type": "message",
      "switch": "no",
      "Day": 1
    },
    {
      "userId": "140000198202211138",
      "userName": "Theodore",
      "message": "Do you know their names?",
      "type": "message",
      "switch": "no",
      "Day": 1
    },
    {
      "userId": "210000198410281948",
      "userName": "Colin",
      "message": "I don't know their names.",
      "type": "message",
      "switch": "no",
      "Day": 1
    },
    {
      "userId": "140000198202211138",
      "userName": "Theodore",
      "message": "It doesn't matter. ",
      "type": "message",
      "switch": "no",
      "Day": 1
    },
    {
      "userId": "210000198410281948",
      "userName": "Colin",
      "message": "What's the danger of talking to them?",
      "type": "message",
      "switch": "no",
      "Day": 1
    },
    {
      "userId": "140000198202211138",
      "userName": "Theodore",
      "message": "They will open your 3rd eye.",
      "type": "message",
      "switch": "no",
      "Day": 1
    },
    {
      "userId": "140000198202211138",
      "userName": "Theodore",
      "message": "They will talk a lot about the collective unconscious and say a lot of words which you don't know what they are. But when you look up for it, those would be actual words. Doctors would say hallucinations, but how come these are possible?",
      "type": "message",
      "switch": "no",
      "Day": 1
    },
    {
      "userId": "140000198202211138",
      "userName": "Theodore",
      "message": "They will tell you a certain part of your brain is theirs and will talk to you even during your sleep.",
      "type": "message",
      "switch": "no",
      "Day": 1
    },
    {
      "userId": "140000198202211138",
      "userName": "Theodore",
      "message": "Unless you have to be possessed by extraterrestrials, call us and we will guide you for steps for not getting possessed.",
      "type": "message",
      "switch": "no",
      "Day": 1
    },
    {
      "userId": "140000198202211138",
      "userName": "Theodore",
      "message": "Do not make a contact again.",
      "type": "message",
      "switch": "no",
      "Day": 1
    },
    {
      "userId": "140000198202211138",
      "userName": "Note",
      "message": "Colin gets extremely confused. To get some help, he travels to Puridur to meet Ivan. ",
      "type": "message",
      "switch": "no",
      "Day": 1
    },
    {
      "userId": "140000198202211138",
      "userName": "Note",
      "message": "Location - Ivan's home, Puridur, Titania. ",
      "type": "message",
      "switch": "no",
      "Day": 1
    },
    {
      "userId": "140000198202211138",
      "userName": "Note",
      "message": "Time - 03:25 P.M, 8th October, 1844. ",
      "type": "message",
      "switch": "no",
      "Day": 1
    },
    {
      "type": "interimImage",
      "interimImageInStory": "yes",
      "imageSrc": "day1_04.png",
      "Day": 1
    },
    {
      "userId": "140000198202211138",
      "userName": "Ivan",
      "message": "What's the news?",
      "type": "message",
      "switch": "no",
      "Day": 1
    },
    {
      "userId": "210000198410281948",
      "userName": "Colin",
      "message": "I had a contact today.",
      "type": "message",
      "switch": "no",
      "Day": 1
    },
    {
      "userId": "140000198202211138",
      "userName": "Ivan",
      "message": "What?",
      "type": "message",
      "switch": "no",
      "Day": 1
    },
    {
      "userId": "210000198410281948",
      "userName": "Colin",
      "message": "I was contacted by them.",
      "type": "message",
      "switch": "no",
      "Day": 1
    },
    {
      "userId": "140000198202211138",
      "userName": "Ivan",
      "message": "Who?",
      "type": "message",
      "switch": "no",
      "Day": 1
    },
    {
      "userId": "210000198410281948",
      "userName": "Colin",
      "message": "An Alien.",
      "type": "message",
      "switch": "no",
      "Day": 1
    },
    {
      "userId": "140000198202211138",
      "userName": "Ivan",
      "message": "Huh?",
      "type": "message",
      "switch": "no",
      "Day": 1
    },
    {
      "type": "interimImage",
      "interimImageInStory": "yes",
      "imageSrc": "day1_07.png",
      "Day": 1
    },
    {
      "userId": "210000198410281948",
      "userName": "Colin",
      "message": "Did you see the talk show with RETI today on AVBC channel?",
      "type": "message",
      "switch": "no",
      "Day": 1
    },
    {
      "userId": "140000198202211138",
      "userName": "Ivan",
      "message": "I don't watch TV.",
      "type": "message",
      "switch": "no",
      "Day": 1
    },
    {
      "userId": "210000198410281948",
      "userName": "Colin",
      "message": "They said if you hear voices it is Aliens.",
      "type": "message",
      "switch": "no",
      "Day": 1
    },
    {
      "userId": "140000198202211138",
      "userName": "Ivan",
      "message": "That is a fraud show. All they want is sensation.",
      "type": "message",
      "switch": "no",
      "Day": 1
    },
    {
      "userId": "210000198410281948",
      "userName": "Colin",
      "message": "I called to RETI organisation and they confirmed it. They talked about opening 3rd eye.",
      "type": "message",
      "switch": "no",
      "Day": 1
    },
    {
      "userId": "140000198202211138",
      "userName": "Ivan",
      "message": "What is that RETI?",
      "type": "message",
      "switch": "no",
      "Day": 1
    },
    {
      "userId": "210000198410281948",
      "userName": "Colin",
      "message": "They are an association for contacting Aliens.",
      "type": "message",
      "switch": "no",
      "Day": 1
    },
    {
      "userId": "140000198202211138",
      "userName": "Ivan",
      "message": "I will ask my friend Peter to help you. I think you need some help.",
      "type": "message",
      "switch": "no",
      "Day": 1
    },
    {
      "userId": "210000198410281948",
      "userName": "Colin",
      "message": "Not him please.",
      "type": "message",
      "switch": "no",
      "Day": 1
    },
    {
      "userId": "140000198202211138",
      "userName": "Ivan",
      "message": "Did you talk to him?",
      "type": "message",
      "switch": "no",
      "Day": 1
    },
    {
      "userId": "210000198410281948",
      "userName": "Colin",
      "message": "Forget it. I don't like him. I don't have a good rapport with him.",
      "type": "message",
      "switch": "no",
      "Day": 1
    },
    {
      "userId": "140000198202211138",
      "userName": "Ivan",
      "message": "I believe you but you and I cannot confirm these. There are psychiatrists who can help you with this.",
      "type": "message",
      "switch": "no",
      "Day": 1
    },
    {
      "userId": "210000198410281948",
      "userName": "Colin",
      "message": "You think I am out of my mind?",
      "type": "message",
      "switch": "no",
      "Day": 1
    },
    {
      "userId": "140000198202211138",
      "userName": "Ivan",
      "message": "If an Alien is capable of contacting someone's brain, they would have invented some more efficient way. What's the use for them?",
      "type": "message",
      "switch": "no",
      "Day": 1
    },
    {
      "userId": "210000198410281948",
      "userName": "Colin",
      "message": "What do you want me to do?",
      "type": "message",
      "switch": "no",
      "Day": 1
    },
    {
      "userId": "140000198202211138",
      "userName": "Ivan",
      "message": "Get some help from psychiatrists.",
      "type": "message",
      "switch": "no",
      "Day": 1
    },
    {
      "userId": "210000198410281948",
      "userName": "Colin",
      "message": "I will surely go check a doctor. But there is something else I wanted to ask you.",
      "type": "message",
      "switch": "no",
      "Day": 1
    },
    {
      "userId": "140000198202211138",
      "userName": "Ivan",
      "message": "Yeah feel free to ask me.",
      "type": "message",
      "switch": "no",
      "Day": 1
    },
    {
      "userId": "210000198410281948",
      "userName": "Colin",
      "message": "My house owner is asking me to vacate as I am running out of money. Can I use your home till I get a job? ",
      "type": "message",
      "switch": "no",
      "Day": 1
    },
    {
      "userId": "140000198202211138",
      "userName": "Ivan",
      "message": "You can use my guest house anytime you want. ",
      "type": "message",
      "switch": "no",
      "Day": 1
    },
    {
      "userId": "210000198410281948",
      "userName": "Colin",
      "message": "Are you sure? I might need it in next few days. ",
      "type": "message",
      "switch": "no",
      "Day": 1
    },
    {
      "userId": "140000198202211138",
      "userName": "Ivan",
      "message": "Yes, you can rely on me. ",
      "type": "message",
      "switch": "no",
      "Day": 1
    },
    {
      "userId": "140000198202211138",
      "userName": "Note",
      "message": "Next 1 hour Colin reaches Hiroshi hospitals and meets Doctor Hiroshi ",
      "type": "message",
      "switch": "no",
      "Day": 1
    },
    {
      "userId": "140000198202211138",
      "userName": "Note",
      "message": "Location - Hiroshi Hospitals, Handai, Titania. ",
      "type": "message",
      "switch": "no",
      "Day": 1
    },
    {
      "userId": "140000198202211138",
      "userName": "Note",
      "message": "Time - 05:49 P.M, 8th October, 1844. ",
      "type": "message",
      "switch": "no",
      "Day": 1
    },
    {
      "type": "interimImage",
      "interimImageInStory": "yes",
      "imageSrc": "day1_08.png",
      "Day": 1
    },
    {
      "userId": "140000198202211138",
      "userName": "Note",
      "message": "After a series of scans and medical tests Doctor inquires in detail about the voice he is hearing.",
      "type": "message",
      "switch": "no",
      "Day": 1
    },
    {
      "userId": "140000198202211138",
      "userName": "Dr. Hiroshi ",
      "message": "Here is what I think as of now. Firstly, we need more observation to understand your case now.",
      "type": "message",
      "switch": "no",
      "Day": 1
    },
    {
      "type": "interimImage",
      "interimImageInStory": "yes",
      "imageSrc": "day1_09.png",
      "Day": 1
    },
    {
      "userId": "210000198410281948",
      "userName": "Colin",
      "message": "I just want to know if it is Aliens.",
      "type": "message",
      "switch": "no",
      "Day": 1
    },
    {
      "userId": "140000198202211138",
      "userName": "Dr. Hiroshi ",
      "message": "I cannot just give a straight answer just like that.",
      "type": "message",
      "switch": "no",
      "Day": 1
    },
    {
      "userId": "210000198410281948",
      "userName": "Colin",
      "message": "You just took several tests and you still cannot say?",
      "type": "message",
      "switch": "no",
      "Day": 1
    },
    {
      "userId": "140000198202211138",
      "userName": "Dr. Hiroshi ",
      "message": "Let me explain in detail about this.",
      "type": "message",
      "switch": "no",
      "Day": 1
    },
    {
      "userId": "140000198202211138",
      "userName": "Dr. Hiroshi ",
      "message": "The main reasons why people hear voices in their head are anxiety, alcohol, drugs, depression, and schizophrenia. The biggest cause of this is schizophrenia.",
      "type": "message",
      "switch": "no",
      "Day": 1
    },
    {
      "userId": "140000198202211138",
      "userName": "Dr. Hiroshi ",
      "message": "People who have schizophrenia often say they hear voices and this is called Auditory hallucinations.",
      "type": "message",
      "switch": "no",
      "Day": 1
    },
    {
      "userId": "140000198202211138",
      "userName": "Dr. Hiroshi ",
      "message": "So based on test results, I can clearly say the only person who is in your is head is probably you.",
      "type": "message",
      "switch": "no",
      "Day": 1
    },
    {
      "userId": "210000198410281948",
      "userName": "Colin",
      "message": "How can you say for sure, because it sounds real.",
      "type": "message",
      "switch": "no",
      "Day": 1
    },
    {
      "userId": "210000198410281948",
      "userName": "Colin",
      "message": "I want more details so I can understand it.",
      "type": "message",
      "switch": "no",
      "Day": 1
    },
    {
      "userId": "140000198202211138",
      "userName": "Dr. Hiroshi ",
      "message": "You want full details?",
      "type": "message",
      "switch": "no",
      "Day": 1
    },
    {
      "userId": "210000198410281948",
      "userName": "Colin",
      "message": "I want details.",
      "type": "message",
      "switch": "no",
      "Day": 1
    },
    {
      "userId": "140000198202211138",
      "userName": "Dr. Hiroshi ",
      "message": "Broca's area, Superior temporal gyrus, and Globus padullus showed minimal activity while primary auditory cortex and transverse temporal gyri are observed to show more activity when you were closing eyes.",
      "type": "message",
      "switch": "no",
      "Day": 1
    },
    {
      "type": "interimImage",
      "interimImageInStory": "yes",
      "imageSrc": "day1_10.png",
      "Day": 1
    },
    {
      "userId": "140000198202211138",
      "userName": "Dr. Hiroshi ",
      "message": "Generally people with Auditory hallucinations see increased activity in striatal subcortical nuclei, hypothalamus, and paralimbic regions. This is what we try in fMRI scan. Do you understand now?",
      "type": "message",
      "switch": "no",
      "Day": 1
    },
    {
      "userId": "210000198410281948",
      "userName": "Colin",
      "message": "These names of various medicines?",
      "type": "message",
      "switch": "no",
      "Day": 1
    },
    {
      "userId": "210000198410281948",
      "userName": "Colin",
      "message": "What do you want me to do now? I think you are trying to clearly confuse me. Why don't you explain to me in a way I understand.",
      "type": "message",
      "switch": "no",
      "Day": 1
    },
    {
      "userId": "140000198202211138",
      "userName": "Dr. Hiroshi ",
      "message": "Let me tell you. There are 4 levels in the development of inner voices.",
      "type": "message",
      "switch": "no",
      "Day": 1
    },
    {
      "userId": "140000198202211138",
      "userName": "Dr. Hiroshi ",
      "message": "It starts from a person being able to have an external dialogue to talk to others such as parents and friends to internal monologues where one talk to their mind.",
      "type": "message",
      "switch": "no",
      "Day": 1
    },
    {
      "userId": "140000198202211138",
      "userName": "Dr. Hiroshi ",
      "message": "Due to extreme stress, your mind will be having errors in properly recognising your inner voice as it will sound alien to the individual in mind.",
      "type": "messagemood",
      "switch": "no",
      "Day": 1,
      "behaviours": {
        "happiness": "0.1",
        "health": "0.6",
        "romance": "0.1",
        "fear": "0.5",
        "wish": "0",
        "wantedLevel": "0",
        "balance": "$5744.00"
      }
    },
    {
      "userId": "210000198410281948",
      "userName": "Colin",
      "message": "What do you want me to do?",
      "type": "message",
      "switch": "no",
      "Day": 1
    },
    {
      "userId": "140000198202211138",
      "userName": "Dr. Hiroshi ",
      "message": "I will give you some anti-psychotic medications and will give the name of the mental hospital where you should get admitted within 72 hours for the observations.",
      "type": "message",
      "switch": "no",
      "Day": 1
    },
    {
      "userId": "210000198410281948",
      "userName": "Colin",
      "message": "Why should I get admitted to a mental hospital? I feel perfectly normal now.",
      "type": "message",
      "switch": "no",
      "Day": 1
    },
    {
      "userId": "140000198202211138",
      "userName": "Dr. Hiroshi ",
      "message": "You told you have just heard voices saying meaningless things for now. If the voice had told you to hurt you or hurt others I would have admitted you to mental hospital straight away.",
      "type": "message",
      "switch": "no",
      "Day": 1
    },
    {
      "userId": "210000198410281948",
      "userName": "Colin",
      "message": "I understand now.",
      "type": "message",
      "switch": "no",
      "Day": 1
    },
    {
      "userId": "140000198202211138",
      "userName": "Note",
      "message": "Doctor charges 2550$ for tests and consultation.",
      "type": "messagemood",
      "switch": "no",
      "Day": 1,
      "behaviours": {
        "happiness": "0",
        "health": "0.5",
        "romance": "0.1",
        "fear": "0.4",
        "wish": "0",
        "wantedLevel": "0",
        "balance": "$3194"
      }
    },
    {
      "userId": "140000198202211138",
      "userName": "Note",
      "message": "Go back and check Colin's worth to see the balance he owns.",
      "type": "message",
      "switch": "no",
      "Day": 1
    },
    {
      "userId": "140000198202211138",
      "userName": "Note",
      "message": "Colin arrives back to his hotel in a cab.",
      "type": "message",
      "switch": "no",
      "Day": 1
    },
    {
      "type": "interimImage",
      "interimImageInStory": "yes",
      "imageSrc": "day1_12.png",
      "Day": 1
    },
    {
      "userId": "140000198202211138",
      "userName": "Note",
      "message": "Cab driver charges $94",
      "type": "messagemood",
      "switch": "no",
      "Day": 1,
      "behaviours": {
        "happiness": "0",
        "health": "0.5",
        "romance": "0.1",
        "fear": "0.6",
        "wish": "0",
        "wantedLevel": "0",
        "balance": "$3100"
      }
    },
    {
      "userId": "140000198202211138",
      "userName": "Note",
      "message": "Go back and check Colin's bank balance to see the balance.",
      "type": "message",
      "switch": "no",
      "Day": 1
    },
    {
      "userId": "140000198202211138",
      "userName": "Note",
      "message": "As Colin is tired, he orders food. ",
      "type": "message",
      "switch": "no",
      "Day": 1
    },
    {
      "userId": "140000198202211138",
      "userName": "Note",
      "message": "Food is delivered. It is charged $60. ",
      "type": "messagemood",
      "switch": "no",
      "Day": 1,
      "behaviours": {
        "happiness": "0",
        "health": "0.5",
        "romance": "0.1",
        "fear": "0.6",
        "wish": "0",
        "wantedLevel": "0",
        "balance": "$3040.00"
      }
    },
    {
      "userId": "140000198202211138",
      "userName": "Note",
      "message": "Go back and check Colin's worth to see the balance.",
      "type": "message",
      "switch": "no",
      "Day": 1
    },
    {
      "userId": "140000198202211138",
      "userName": "Note",
      "message": "Colin checks his balance.",
      "type": "message",
      "switch": "no",
      "Day": 1
    },
    {
      "userId": "140000198202211138",
      "userName": "Note",
      "message": "After seeing his balance, Colin gets extremely depressed.",
      "type": "message",
      "switch": "no",
      "Day": 1
    },
    {
      "userId": "140000198202211138",
      "userName": "Note",
      "message": "Colin throws the food away in frustration",
      "type": "message",
      "switch": "no",
      "Day": 1
    },
    {
      "userId": "210000198410281948",
      "userName": "Colin",
      "message": "Talk to me.",
      "type": "message",
      "switch": "no",
      "Day": 1
    },
    {
      "userId": "210000198410281948",
      "userName": "Colin",
      "message": "Talk to me now.",
      "type": "message",
      "switch": "no",
      "Day": 1
    },
    {
      "userId": "210000198410281948",
      "userName": "Colin",
      "message": "This is all because of you.",
      "type": "message",
      "switch": "no",
      "Day": 1
    },
    {
      "userId": "210000198410281948",
      "userName": "Colin",
      "message": "I want to talk to you.",
      "type": "message",
      "switch": "no",
      "Day": 1
    },
    {
      "userId": "210000198410281948",
      "userName": "Colin",
      "message": "Are you there?",
      "type": "message",
      "switch": "no",
      "Day": 1
    },
    {
      "userId": "210000198410281948",
      "userName": "Colin",
      "message": "Is it just my dream?",
      "type": "message",
      "switch": "no",
      "Day": 1
    },
    {
      "userId": "210000198410281948",
      "userName": "Colin",
      "message": "If you are listening to me, talk to me.",
      "type": "message",
      "switch": "no",
      "Day": 1
    },
    {
      "userId": "210000198410281948",
      "userName": "Colin",
      "message": "I have plenty to ask.",
      "type": "message",
      "switch": "no",
      "Day": 1
    },
    {
      "userId": "210000198410281948",
      "userName": "Colin",
      "message": "I know you are listening.",
      "type": "message",
      "switch": "no",
      "Day": 1
    },
    {
      "userId": "210000198410281948",
      "userName": "Colin",
      "message": "What is happening to me? ",
      "type": "message",
      "switch": "no",
      "Day": 1
    },
    {
      "userId": "210000198410281948",
      "userName": "Colin",
      "message": "Have I become mad?",
      "type": "message",
      "switch": "no",
      "Day": 1
    },
    {
      "userId": "210000198410281948",
      "userName": "Note",
      "message": "* Connected *",
      "type": "message",
      "switch": "no",
      "Day": 1
    },
    {
      "userId": "140000198202211138",
      "userName": "You",
      "message": [
        {
          "userId": "210000198410281948",
          "userName": "You",
          "message": "Hey, Colin, nice to meet you! ",
          "type": "message",
          "switch": "no",
          "Day": 1
        },
        {
          "userId": "210000198410281948",
          "userName": "You",
          "message": "Hello Hello",
          "type": "message",
          "switch": "no",
          "Day": 1
        },
        {
          "userId": "210000198410281948",
          "userName": "You",
          "message": "Can you hear me?",
          "type": "messagemood",
          "switch": "no",
          "Day": 1,
          "behaviours": {
            "happiness": "0",
            "health": "0.5",
            "romance": "0.1",
            "fear": "0.6",
            "wish": "0",
            "wantedLevel": "0",
            "balance": "$3040.00"
          }
        }
      ],
      "type": "choice",
      "switch": "no",
      "Day": 1,
      "interimAudioInStory": "yes",
      "audioSrc": "sound5.ogg"
    },
    {
      "userId": "210000198410281948",
      "userName": "Colin",
      "message": "Who are you?",
      "type": "message",
      "switch": "no",
      "Day": 1
    },
    {
      "userId": "140000198202211138",
      "userName": "You",
      "message": [
        {
          "userId": "210000198410281948",
          "userName": "You",
          "message": "I am a person from another dimension  ",
          "type": "message",
          "switch": "no",
          "Day": 1
        },
        {
          "userId": "210000198410281948",
          "userName": "You",
          "message": "It is not important to you",
          "type": "message",
          "switch": "no",
          "Day": 1
        },
        {
          "userId": "210000198410281948",
          "userName": "You",
          "message": "I can't tell you",
          "type": "message",
          "switch": "no",
          "Day": 1
        }
      ],
      "type": "choice",
      "switch": "yes",
      "Day": 1
    },
    {
      "userId": "210000198410281948",
      "userName": "Colin",
      "message": "What does another dimension mean? Like another world?",
      "type": "message",
      "switch": "no",
      "Day": 1
    },
    {
      "userId": "140000198202211138",
      "userName": "You",
      "message": [
        {
          "userId": "210000198410281948",
          "userName": "You",
          "message": "Yes like another world",
          "type": "message",
          "switch": "no",
          "Day": 1
        },
        {
          "userId": "210000198410281948",
          "userName": "You",
          "message": "You won't understand it",
          "type": "message",
          "switch": "no",
          "Day": 1
        },
        {
          "userId": "210000198410281948",
          "userName": "You",
          "message": "Don't ask me more ",
          "type": "message",
          "switch": "no",
          "Day": 1
        }
      ],
      "type": "choice",
      "switch": "yes",
      "Day": 1
    },
    {
      "userId": "210000198410281948",
      "userName": "Colin",
      "message": "Where exactly is this other world?",
      "type": "message",
      "switch": "no",
      "Day": 1
    },
    {
      "userId": "210000198410281948",
      "userName": "Colin",
      "message": "Where are you talking from?",
      "type": "message",
      "switch": "no",
      "Day": 1
    },
    {
      "userId": "140000198202211138",
      "userName": "You",
      "message": [
        {
          "userId": "210000198410281948",
          "userName": "You",
          "message": "I am talking from Earth. ",
          "type": "message",
          "switch": "no",
          "Day": 1
        },
        {
          "userId": "210000198410281948",
          "userName": "You",
          "message": "None of this will make any meaning to you? You want to know about my planet?",
          "type": "message",
          "switch": "no",
          "Day": 1
        },
        {
          "userId": "210000198410281948",
          "userName": "You",
          "message": "My galaxy name? Milky Way?",
          "type": "message",
          "switch": "no",
          "Day": 1
        }
      ],
      "type": "choice",
      "switch": "yes",
      "Day": 1
    },
    {
      "userId": "210000198410281948",
      "userName": "Colin",
      "message": "Earth? What is it? What does it look like?",
      "type": "message",
      "switch": "no",
      "Day": 1
    },
    {
      "userId": "140000198202211138",
      "userName": "You",
      "message": [
        {
          "userId": "210000198410281948",
          "userName": "You",
          "message": "It is a round blue planet. What about yours?",
          "type": "message",
          "switch": "no",
          "Day": 1
        },
        {
          "userId": "210000198410281948",
          "userName": "You",
          "message": "It is in Solar System",
          "type": "message",
          "switch": "no",
          "Day": 1
        },
        {
          "userId": "210000198410281948",
          "userName": "You",
          "message": "Maybe you know it by different names",
          "type": "message",
          "switch": "no",
          "Day": 1
        }
      ],
      "type": "choice",
      "switch": "yes",
      "Day": 1
    },
    {
      "userId": "210000198410281948",
      "userName": "Colin",
      "message": "Round?",
      "type": "message",
      "switch": "no",
      "Day": 1
    },
    {
      "userId": "210000198410281948",
      "userName": "Colin",
      "message": "Mine is a yellow flat planet",
      "type": "message",
      "switch": "no",
      "Day": 1
    },
    {
      "userId": "210000198410281948",
      "userName": "Colin",
      "message": "I can't comprehend this. ",
      "type": "message",
      "switch": "no",
      "Day": 1
    },
    {
      "userId": "210000198410281948",
      "userName": "Colin",
      "message": "So if I am clear I am a contactee from Alien now? This is crazy if true. Why did you contact me? You are not here to declare war or something right?",
      "type": "message",
      "switch": "no",
      "Day": 1
    },
    {
      "userId": "140000198202211138",
      "userName": "You",
      "message": [
        {
          "userId": "210000198410281948",
          "userName": "You",
          "message": "To help you, to improve you. I saw you lost hope",
          "type": "message",
          "switch": "no",
          "Day": 1
        },
        {
          "userId": "210000198410281948",
          "userName": "You",
          "message": "To help me in the name of helping you",
          "type": "message",
          "switch": "no",
          "Day": 1
        },
        {
          "userId": "210000198410281948",
          "userName": "You",
          "message": "I am not supposed to tell you",
          "type": "message",
          "switch": "no",
          "Day": 1
        }
      ],
      "type": "choice",
      "switch": "no",
      "Day": 1
    },
    {
      "userId": "210000198410281948",
      "userName": "Colin",
      "message": "How can you help me?",
      "type": "message",
      "switch": "no",
      "Day": 1
    },
    {
      "userId": "140000198202211138",
      "userName": "You",
      "message": [
        {
          "userId": "210000198410281948",
          "userName": "You",
          "message": "1. I can give you 7 powers of your wish. 2. I can increase your luck",
          "type": "message",
          "switch": "no",
          "Day": 1
        },
        {
          "userId": "210000198410281948",
          "userName": "You",
          "message": "You will get to know",
          "type": "message",
          "switch": "no",
          "Day": 1
        },
        {
          "userId": "210000198410281948",
          "userName": "You",
          "message": "Are you doubting?",
          "type": "message",
          "switch": "no",
          "Day": 1
        }
      ],
      "type": "choice",
      "switch": "no",
      "Day": 1,
      "interimAudioInStory": "yes",
      "audioSrc": "soud6.ogg"
    },
    {
      "userId": "210000198410281948",
      "userName": "Colin",
      "message": "Why? Do you get any benefit from it? ",
      "type": "message",
      "switch": "no",
      "Day": 1
    },
    {
      "userId": "140000198202211138",
      "userName": "You",
      "message": [
        {
          "userId": "210000198410281948",
          "userName": "You",
          "message": "I am doing this as I was assigned a mission, and if I do it, your luck increases.",
          "type": "message",
          "switch": "no",
          "Day": 1
        },
        {
          "userId": "210000198410281948",
          "userName": "You",
          "message": "We are doing some experiments by studying you",
          "type": "message",
          "switch": "no",
          "Day": 1
        },
        {
          "userId": "210000198410281948",
          "userName": "You",
          "message": "This is about you, don't think about me",
          "type": "message",
          "switch": "no",
          "Day": 1
        }
      ],
      "type": "choice",
      "switch": "yes",
      "Day": 1
    },
    {
      "userId": "210000198410281948",
      "userName": "Colin",
      "message": "Are there others like you?",
      "type": "message",
      "switch": "no",
      "Day": 1
    },
    {
      "userId": "140000198202211138",
      "userName": "You",
      "message": [
        {
          "userId": "210000198410281948",
          "userName": "You",
          "message": "Certainly!",
          "type": "message",
          "switch": "no",
          "Day": 1
        },
        {
          "userId": "210000198410281948",
          "userName": "You",
          "message": "I don't know",
          "type": "message",
          "switch": "no",
          "Day": 1
        },
        {
          "userId": "210000198410281948",
          "userName": "You",
          "message": "No",
          "type": "message",
          "switch": "no",
          "Day": 1
        }
      ],
      "type": "choice",
      "switch": "yes",
      "Day": 1
    },
    {
      "userId": "210000198410281948",
      "userName": "Colin",
      "message": "I can't believe I started hallucinating. I have been watching a lot of movies.",
      "type": "message",
      "switch": "no",
      "Day": 1
    },
    {
      "userId": "210000198410281948",
      "userName": "Colin",
      "message": " And what do you mean by powers?  ",
      "type": "message",
      "switch": "no",
      "Day": 1
    },
    {
      "userId": "210000198410281948",
      "userName": "You",
      "message": "You have been given 21 powers. You can activate any 7 powers and use the way you want.",
      "type": "message",
      "switch": "no",
      "Day": 1
    },
    {
      "userId": "210000198410281948",
      "userName": "You",
      "message": "Magnetism, Levitation, Night vision, Invisibility, Super senses, Telepathy, Teleportation, Superhuman strength, Telekinesis, Mind control, Super stretching, Flying, Super speed, Medium awareness / Fourth wall awareness, Shape shifting, Pyrokinesis, Muscle mass, Manipulating dreams, Time travel, Weather modification, and Wall crawling. You need to ask me to activate it. ",
      "type": "message",
      "switch": "no",
      "Day": 1
    },
    {
      "userId": "210000198410281948",
      "userName": "Colin",
      "message": " Shut up, I am going to sleep. They say hallucinations come mostly due to lack of sleep.  ",
      "type": "message",
      "switch": "no",
      "Day": 1
    },
    {
      "userId": "140000198202211138",
      "userName": "Note",
      "message": "Colin goes to bed hoping the voices will go away once he gets a good sleep.",
      "type": "message",
      "switch": "no",
      "Day": 1
    },
    {
      "type": "interimImage",
      "interimImageInStory": "yes",
      "imageSrc": "daya.jpeg",
      "Day": 1
    },
    {
      "userId": "140000198202211138",
      "userName": "Note",
      "message": "To be continued.. ",
      "type": "message",
      "switch": "no",
      "Day": 1
    },
    {
      "userId": "210000198410281948",
      "userName": "Colin",
      "message": "  You are right but I refuse. It doesn't sound practical at all. I was born to be ordinary and I will live like this ",
      "type": "messagemood",
      "switch": "no",
      "Day": 1,
      "behaviours": {
        "happiness": "0.5",
        "health": "0.5",
        "romance": "0.2",
        "mood": "Motivated",
        "wantedLevel": "0"
      }
    }
  ]
}