{
  "array": [
    {
      "userId": "140000198202211138",
      "userName": "Note",
      "message": "Please wear headphones for better experience.",
      "type": "message",
      "switch": "no",
      "Day": 3
    },
    {
      "userId": "140000198202211138",
      "userName": "Note",
      "message": "Location : Titania Defense Headquarters ",
      "type": "message",
      "switch": "no",
      "Day": 3
    },
    {
      "userId": "140000198202211138",
      "userName": "Note",
      "message": "Time — 10:50 A.M, 10th October, 1844. ",
      "type": "message",
      "switch": "no",
      "Day": 3
    },
    {
      "userId": "140000198202211138",
      "userName": "Officer Mario",
      "message": "We are trying to prepare ourselves to fight these creatures in many ways. That's why we created Superhuman project.",
      "type": "message",
      "switch": "no",
      "Day": 3
    },
    {
      "userId": "140000198202211138",
      "userName": "Officer Mario",
      "message": "But unfortunately, experiments failed to show immediate results on test subjects.",
      "type": "message",
      "switch": "no",
      "Day": 3
    },
    {
      "userId": "140000198202211138",
      "userName": "Reporter 1",
      "message": "Are they injured?",
      "type": "message",
      "switch": "no",
      "Day": 3
    },
    {
      "userId": "140000198202211138",
      "userName": "Reporter 1",
      "message": "What happened to them?",
      "type": "message",
      "switch": "no",
      "Day": 3
    },
    {
      "userId": "140000198202211138",
      "userName": "Officer Mario",
      "message": "They are all admitted for treatment. Yes they are injured. Please excuse us as we will reveal all details later.",
      "type": "message",
      "switch": "no",
      "Day": 3
    },
    {
      "userId": "140000198202211138",
      "userName": "Reporter 2",
      "message": "What about the threat caused by the creatures? Are they attacking?",
      "type": "message",
      "switch": "no",
      "Day": 3
    },
    {
      "userId": "140000198202211138",
      "userName": "Officer Mario",
      "message": "The sightings are continued to be reported. But no news of them attacking our civilians. They are said to spreading and multiplicating, not sure if they are reproducing.",
      "type": "message",
      "switch": "no",
      "Day": 3
    },
    {
      "userId": "140000198202211138",
      "userName": "Reporter 3",
      "message": "What's the next move?",
      "type": "message",
      "switch": "no",
      "Day": 3
    },
    {
      "userId": "140000198202211138",
      "userName": "Officer Mario",
      "message": "We want the people to trust us in our fight against this creature as Project Superhuman is not over yet.",
      "type": "message",
      "switch": "no",
      "Day": 3
    },
    {
      "userId": "140000198202211138",
      "userName": "Officer Mario",
      "message": "We are building a cyborg as next step which will fight without any fear.",
      "type": "message",
      "switch": "no",
      "Day": 3
    },
    {
      "userId": "140000198202211138",
      "userName": "Officer Mario",
      "message": "We are requesting people to send the location and details if they encounter any suspicious phenomena. We will take care of the rest.",
      "type": "message",
      "switch": "no",
      "Day": 3
    },
    {
      "userId": "140000198202211138",
      "userName": "Officer Mario",
      "message": "We are hereby declaring war on those creatures.",
      "type": "message",
      "switch": "no",
      "Day": 3
    },
    {
      "userId": "140000198202211138",
      "userName": "Officer Mario",
      "message": "I ensure we will restore peace.",
      "type": "message",
      "switch": "no",
      "Day": 3
    },
    {
      "userId": "140000198202211138",
      "userName": "Note",
      "message": "Live broadcast news has ended.",
      "type": "message",
      "switch": "no",
      "Day": 3
    },
    {
      "userId": "140000198202211138",
      "userName": "Note",
      "message": "Location: Colin's room, Eirene Hotels, Titania. ",
      "type": "message",
      "switch": "no",
      "Day": 3
    },
    {
      "userId": "140000198202211138",
      "userName": "Note",
      "message": "Time — 11:52 A.M, 10th October, 1844. ",
      "type": "message",
      "switch": "no",
      "Day": 3
    },
    {
      "userId": "210000198410281948",
      "userName": "Colin",
      "message": "I thought you were my friend.",
      "type": "message",
      "switch": "no",
      "Day": 3
    },
    {
      "userId": "210000198410281948",
      "userName": "Colin",
      "message": "I thought you will support me but you were silent.",
      "type": "message",
      "switch": "no",
      "Day": 3
    },
    {
      "userId": "140000198202211138",
      "userName": "Ivan",
      "message": "What did you expect me to do?",
      "type": "message",
      "switch": "no",
      "Day": 3
    },
    {
      "userId": "210000198410281948",
      "userName": "Colin",
      "message": "You never asked them to stop when they mocked me.",
      "type": "message",
      "switch": "no",
      "Day": 3
    },
    {
      "userId": "140000198202211138",
      "userName": "Ivan",
      "message": "Don't mistake me. But I think what they were saying was right.",
      "type": "message",
      "switch": "no",
      "Day": 3
    },
    {
      "userId": "210000198410281948",
      "userName": "Colin",
      "message": "They talk like my life is meaningless?",
      "type": "message",
      "switch": "no",
      "Day": 3
    },
    {
      "userId": "140000198202211138",
      "userName": "Ivan",
      "message": "You don't have a job. You don't have any work. There were right in some way I think. ",
      "type": "message",
      "switch": "no",
      "Day": 3
    },
    {
      "userId": "210000198410281948",
      "userName": "Colin",
      "message": "Those experiments failed, you should be happy I did not participate.",
      "type": "message",
      "switch": "no",
      "Day": 3
    },
    {
      "userId": "140000198202211138",
      "userName": "Ivan",
      "message": "Atleast they got paid for their work.",
      "type": "message",
      "switch": "no",
      "Day": 3
    },
    {
      "userId": "210000198410281948",
      "userName": "Colin",
      "message": "They are using people like rats. And you are asking me to participate.",
      "type": "message",
      "switch": "no",
      "Day": 3
    },
    {
      "userId": "210000198410281948",
      "userName": "Colin",
      "message": "We don't know the purpose of those giants. Why are they asking people to sacrifice their life before knowing actual purpose of these creatures?",
      "type": "message",
      "switch": "no",
      "Day": 3
    },
    {
      "userId": "140000198202211138",
      "userName": "Ivan",
      "message": "What if they start attacking? Why do you want to know about it's purpose? Should everything have a purpose?",
      "type": "message",
      "switch": "no",
      "Day": 3
    },
    {
      "userId": "140000198202211138",
      "userName": "Ivan",
      "message": "What about you? Do you have a purpose?",
      "type": "message",
      "switch": "no",
      "Day": 3
    },
    {
      "userId": "210000198410281948",
      "userName": "Colin",
      "message": "You are reminding me that my life is meaningless?",
      "type": "message",
      "switch": "no",
      "Day": 3
    },
    {
      "userId": "140000198202211138",
      "userName": "Ivan",
      "message": "Sorry I didn't mean to hurt you. I am your friend and I am concerned about you. What about the voice?",
      "type": "message",
      "switch": "no",
      "Day": 3
    },
    {
      "userId": "210000198410281948",
      "userName": "Colin",
      "message": "Nothing to worry about that. I can take care of it myself as it is just mild psychological problem due to anxiety.",
      "type": "message",
      "switch": "no",
      "Day": 3
    },
    {
      "userId": "140000198202211138",
      "userName": "Ivan",
      "message": "Don't get angry at me , go and check the doctor. I was saying for your own good.",
      "type": "message",
      "switch": "no",
      "Day": 3
    },
    {
      "userId": "210000198410281948",
      "userName": "Colin",
      "message": "I know what to do. Sure. ",
      "type": "message",
      "switch": "no",
      "Day": 3
    },
    {
      "userId": "140000198202211138",
      "userName": "Note",
      "message": "40 minutes later.",
      "type": "message",
      "switch": "no",
      "Day": 3
    },
    {
      "userId": "140000198202211138",
      "userName": "Note",
      "message": "Colin tries to make the contact with the voice again.",
      "type": "message",
      "switch": "no",
      "Day": 3
    },
    {
      "userId": "210000198410281948",
      "userName": "Colin",
      "message": "I am sure this is my mind. You there?",
      "type": "message",
      "switch": "no",
      "Day": 3
    },
    {
      "userId": "140000198202211138",
      "userName": "You",
      "message": [
        {
          "userId": "210000198410281948",
          "userName": "You",
          "message": "Hi, I am not your mind ",
          "type": "message",
          "switch": "no",
          "Day": 3
        },
        {
          "userId": "210000198410281948",
          "userName": "You",
          "message": "You still saying same thing? ",
          "type": "message",
          "switch": "no",
          "Day": 3
        },
        {
          "userId": "210000198410281948",
          "userName": "You",
          "message": "Do I sound like mind? ",
          "type": "message",
          "switch": "no",
          "Day": 3
        }
      ],
      "type": "choice",
      "switch": "no",
      "Day": 3
    },
    {
      "userId": "210000198410281948",
      "userName": "Colin",
      "message": "Stop tricking me.",
      "type": "message",
      "switch": "no",
      "Day": 3
    },
    {
      "userId": "210000198410281948",
      "userName": "Colin",
      "message": "Doctor wants me to come to hospital so that he can make me pay the bill.",
      "type": "message",
      "switch": "no",
      "Day": 3
    },
    {
      "userId": "210000198410281948",
      "userName": "Colin",
      "message": "He wants me to visit the hospital by saying lies about scan.",
      "type": "message",
      "switch": "no",
      "Day": 3
    },
    {
      "userId": "210000198410281948",
      "userName": "Colin",
      "message": "Wait a minute, you talked about some crap about wishes. What about them?",
      "type": "message",
      "switch": "no",
      "Day": 3
    },
    {
      "userId": "140000198202211138",
      "userName": "You",
      "message": [
        {
          "userId": "210000198410281948",
          "userName": "You",
          "message": "I didn’t do my habit, so it will not happen ",
          "type": "message",
          "switch": "no",
          "Day": 3
        },
        {
          "userId": "210000198410281948",
          "userName": "You",
          "message": "I don’t know ",
          "type": "message",
          "switch": "no",
          "Day": 3
        },
        {
          "userId": "210000198410281948",
          "userName": "You",
          "message": "I can't say anything now ",
          "type": "message",
          "switch": "no",
          "Day": 3
        }
      ],
      "type": "choice",
      "switch": "no",
      "Day": 3
    },
    {
      "userId": "210000198410281948",
      "userName": "Colin",
      "message": "I know it was nonsense. So you still say you can help me?",
      "type": "message",
      "switch": "no",
      "Day": 3
    },
    {
      "userId": "140000198202211138",
      "userName": "You",
      "message": [
        {
          "userId": "210000198410281948",
          "userName": "You",
          "message": "Yes, I can help you with the 6 wishes ",
          "type": "message",
          "switch": "no",
          "Day": 3
        },
        {
          "userId": "210000198410281948",
          "userName": "You",
          "message": "I can increase your luck  ",
          "type": "message",
          "switch": "no",
          "Day": 3
        },
        {
          "userId": "210000198410281948",
          "userName": "You",
          "message": "I can make you become a superman ",
          "type": "message",
          "switch": "no",
          "Day": 3
        }
      ],
      "type": "choice",
      "switch": "no",
      "Day": 3
    },
    {
      "userId": "210000198410281948",
      "userName": "Colin",
      "message": "Enough of that nonsense!",
      "type": "message",
      "switch": "no",
      "Day": 3
    },
    {
      "userId": "210000198410281948",
      "userName": "Colin",
      "message": "I don’t want to waste my time by talking to myself",
      "type": "message",
      "switch": "no",
      "Day": 3
    },
    {
      "userId": "210000198410281948",
      "userName": "Colin",
      "message": "But you sound completely like another person",
      "type": "message",
      "switch": "no",
      "Day": 3
    },
    {
      "userId": "210000198410281948",
      "userName": "Colin",
      "message": "You are my subconscious mind maybe?",
      "type": "message",
      "switch": "no",
      "Day": 3
    },
    {
      "userId": "210000198410281948",
      "userName": "Colin",
      "message": "They say if you can talk to your subconsious mind, you can control yourself.",
      "type": "message",
      "switch": "no",
      "Day": 3
    },
    {
      "userId": "210000198410281948",
      "userName": "Colin",
      "message": "I am going to try something. Like making someone to fall in love?",
      "type": "message",
      "switch": "no",
      "Day": 3
    },
    {
      "userId": "140000198202211138",
      "userName": "You",
      "message": [
        {
          "userId": "210000198410281948",
          "userName": "You",
          "message": "Ask me as a wish and I can grant you to make someone fall in love. ",
          "type": "message",
          "switch": "no",
          "Day": 3
        },
        {
          "userId": "210000198410281948",
          "userName": "You",
          "message": "Do you want that to be your wish? ",
          "type": "message",
          "switch": "no",
          "Day": 3
        },
        {
          "userId": "210000198410281948",
          "userName": "You",
          "message": "Who do you want to fall in love with you? ",
          "type": "message",
          "switch": "no",
          "Day": 3
        }
      ],
      "type": "choice",
      "switch": "no",
      "Day": 3
    },
    {
      "userId": "210000198410281948",
      "userName": "Colin",
      "message": "Yes, Amy. ",
      "type": "message",
      "switch": "no",
      "Day": 3
    },
    {
      "userId": "210000198410281948",
      "userName": "Colin",
      "message": "I want Amy to fall in love with me",
      "type": "message",
      "switch": "no",
      "Day": 3
    },
    {
      "userId": "140000198202211138",
      "userName": "You",
      "message": [
        {
          "userId": "210000198410281948",
          "userName": "You",
          "message": "Doesn't she already like you?  ",
          "type": "message",
          "switch": "no",
          "Day": 3
        },
        {
          "userId": "210000198410281948",
          "userName": "You",
          "message": "Ok I will grant you that wish  ",
          "type": "message",
          "switch": "no",
          "Day": 3
        },
        {
          "userId": "210000198410281948",
          "userName": "You",
          "message": "I think she hates you ",
          "type": "message",
          "switch": "no",
          "Day": 3
        }
      ],
      "type": "choice",
      "switch": "no",
      "Day": 3
    },
    {
      "userId": "210000198410281948",
      "userName": "Colin",
      "message": "I know, I am just testing the powers.",
      "type": "message",
      "switch": "no",
      "Day": 3
    },
    {
      "userId": "140000198202211138",
      "userName": "You",
      "message": [
        {
          "userId": "210000198410281948",
          "userName": "You",
          "message": "You don't need to have a doubt. It will work out ",
          "type": "message",
          "switch": "no",
          "Day": 3
        },
        {
          "userId": "210000198410281948",
          "userName": "You",
          "message": "You can really ask anything like this. ",
          "type": "message",
          "switch": "no",
          "Day": 3
        },
        {
          "userId": "210000198410281948",
          "userName": "You",
          "message": "The world needs people to save them and you want to use powers like this? ",
          "type": "message",
          "switch": "no",
          "Day": 3
        }
      ],
      "type": "choice",
      "switch": "no",
      "Day": 3
    },
    {
      "userId": "210000198410281948",
      "userName": "Colin",
      "message": "Yes I know .. You know what?",
      "type": "message",
      "switch": "no",
      "Day": 3
    },
    {
      "userId": "210000198410281948",
      "userName": "Colin",
      "message": "Everyone is enjoying their days. I am going to be the last man as well.",
      "type": "message",
      "switch": "no",
      "Day": 3
    },
    {
      "userId": "140000198202211138",
      "userName": "You",
      "message": [
        {
          "userId": "210000198410281948",
          "userName": "You",
          "message": "Don't you want to use your powers to save the world? ",
          "type": "message",
          "switch": "no",
          "Day": 3
        },
        {
          "userId": "210000198410281948",
          "userName": "You",
          "message": "You want to use powers to just enjoy your life ? ",
          "type": "message",
          "switch": "no",
          "Day": 3
        },
        {
          "userId": "210000198410281948",
          "userName": "You",
          "message": "Good idea! ",
          "type": "message",
          "switch": "no",
          "Day": 3
        }
      ],
      "type": "choice",
      "switch": "no",
      "Day": 3
    },
    {
      "userId": "210000198410281948",
      "userName": "Colin",
      "message": "Enough of talking.",
      "type": "message",
      "switch": "no",
      "Day": 3
    },
    {
      "userId": "210000198410281948",
      "userName": "Colin",
      "message": "You don't need to tell me anything. I am going to do one thing.",
      "type": "message",
      "switch": "no",
      "Day": 3
    },
    {
      "userId": "210000198410281948",
      "userName": "Colin",
      "message": "I am going to call Amy straightaway.",
      "type": "message",
      "switch": "no",
      "Day": 3
    },
    {
      "userId": "140000198202211138",
      "userName": "Note",
      "message": "Colin calls to Amy’s landline",
      "type": "message",
      "switch": "no",
      "Day": 3
    },
    {
      "userId": "140000198202211138",
      "userName": "Amy",
      "message": "Hello..",
      "type": "message",
      "switch": "no",
      "Day": 3
    },
    {
      "userId": "210000198410281948",
      "userName": "Colin",
      "message": "Hello Amy. How are you doing?",
      "type": "message",
      "switch": "no",
      "Day": 3
    },
    {
      "userId": "140000198202211138",
      "userName": "Amy",
      "message": "Good. How may I help you?",
      "type": "message",
      "switch": "no",
      "Day": 3
    },
    {
      "userId": "210000198410281948",
      "userName": "Colin",
      "message": "I thought about joining the program but they cancelled it.",
      "type": "message",
      "switch": "no",
      "Day": 3
    },
    {
      "userId": "140000198202211138",
      "userName": "Amy",
      "message": "What?",
      "type": "message",
      "switch": "no",
      "Day": 3
    },
    {
      "userId": "210000198410281948",
      "userName": "Colin",
      "message": "About the test program?",
      "type": "message",
      "switch": "no",
      "Day": 3
    },
    {
      "userId": "210000198410281948",
      "userName": "Colin",
      "message": "You asked me about this yesterday right?",
      "type": "message",
      "switch": "no",
      "Day": 3
    },
    {
      "userId": "140000198202211138",
      "userName": "Amy",
      "message": "Ok?",
      "type": "message",
      "switch": "no",
      "Day": 3
    },
    {
      "userId": "210000198410281948",
      "userName": "Colin",
      "message": "I didn’t have any idea to join it.",
      "type": "message",
      "switch": "no",
      "Day": 3
    },
    {
      "userId": "210000198410281948",
      "userName": "Colin",
      "message": "But since you said it, I wanted to participate.",
      "type": "message",
      "switch": "no",
      "Day": 3
    },
    {
      "userId": "140000198202211138",
      "userName": "Amy",
      "message": "May I know if there is anything needed?",
      "type": "message",
      "switch": "no",
      "Day": 3
    },
    {
      "userId": "210000198410281948",
      "userName": "Colin",
      "message": "No I just called to ask if situation is good.",
      "type": "message",
      "switch": "no",
      "Day": 3
    },
    {
      "userId": "140000198202211138",
      "userName": "Amy",
      "message": "I’m sorry, what?",
      "type": "message",
      "switch": "no",
      "Day": 3
    },
    {
      "userId": "210000198410281948",
      "userName": "Colin",
      "message": "I saw the news and I thought if I could help you.",
      "type": "message",
      "switch": "no",
      "Day": 3
    },
    {
      "userId": "210000198410281948",
      "userName": "Colin",
      "message": "I like how you cared for my improvement.",
      "type": "message",
      "switch": "no",
      "Day": 3
    },
    {
      "userId": "140000198202211138",
      "userName": "Amy",
      "message": "Excuse me, may I know why did you call me?",
      "type": "message",
      "switch": "no",
      "Day": 3
    },
    {
      "userId": "210000198410281948",
      "userName": "Colin",
      "message": "Yeah I mean. I called Peter but his line was busy.",
      "type": "message",
      "switch": "no",
      "Day": 3
    },
    {
      "userId": "140000198202211138",
      "userName": "Amy",
      "message": "How did you get my number?",
      "type": "message",
      "switch": "no",
      "Day": 3
    },
    {
      "userId": "140000198202211138",
      "userName": "Note",
      "message": "Amy talks to someone in the background by keeping phone in speaker.",
      "type": "message",
      "switch": "no",
      "Day": 3
    },
    {
      "userId": "140000198202211138",
      "userName": "Peter",
      "message": "Hello? Who is it?",
      "type": "message",
      "switch": "no",
      "Day": 3
    },
    {
      "userId": "210000198410281948",
      "userName": "Colin",
      "message": "Hi Peter.",
      "type": "message",
      "switch": "no",
      "Day": 3
    },
    {
      "userId": "140000198202211138",
      "userName": "Peter",
      "message": "What did you call Amy’s number?",
      "type": "message",
      "switch": "no",
      "Day": 3
    },
    {
      "userId": "210000198410281948",
      "userName": "Colin",
      "message": "What are you doing there?",
      "type": "message",
      "switch": "no",
      "Day": 3
    },
    {
      "userId": "140000198202211138",
      "userName": "Peter",
      "message": "I came here to meet her as she wanted to evacuate.",
      "type": "message",
      "switch": "no",
      "Day": 3
    },
    {
      "userId": "140000198202211138",
      "userName": "Peter",
      "message": "Now, you explain.",
      "type": "message",
      "switch": "no",
      "Day": 3
    },
    {
      "userId": "210000198410281948",
      "userName": "Colin",
      "message": "To say sorry to you and her for not joining.",
      "type": "message",
      "switch": "no",
      "Day": 3
    },
    {
      "userId": "140000198202211138",
      "userName": "Peter",
      "message": "It was cancelled anyway.",
      "type": "message",
      "switch": "no",
      "Day": 3
    },
    {
      "userId": "140000198202211138",
      "userName": "Peter",
      "message": "Wait, I am taking the phone outdoors.",
      "type": "message",
      "switch": "no",
      "Day": 3
    },
    {
      "userId": "210000198410281948",
      "userName": "Colin",
      "message": "Yes?",
      "type": "message",
      "switch": "no",
      "Day": 3
    },
    {
      "userId": "140000198202211138",
      "userName": "Peter",
      "message": "Shall I say something if you don’t mind?",
      "type": "message",
      "switch": "no",
      "Day": 3
    },
    {
      "userId": "210000198410281948",
      "userName": "Colin",
      "message": "No go ahead.",
      "type": "message",
      "switch": "no",
      "Day": 3
    },
    {
      "userId": "140000198202211138",
      "userName": "Peter",
      "message": "Would you mind staying away from Amy?",
      "type": "message",
      "switch": "no",
      "Day": 3
    },
    {
      "userId": "210000198410281948",
      "userName": "Colin",
      "message": "Absolutely.",
      "type": "message",
      "switch": "no",
      "Day": 3
    },
    {
      "userId": "140000198202211138",
      "userName": "Peter",
      "message": "You know it, she is levels above you. You will never be anywhere near her as she is way above for guys like you to even dream about.",
      "type": "message",
      "switch": "no",
      "Day": 3
    },
    {
      "userId": "140000198202211138",
      "userName": "Peter",
      "message": "You know you cannot even stand near her in her beauty, her net worth and in her skills.",
      "type": "message",
      "switch": "no",
      "Day": 3
    },
    {
      "userId": "210000198410281948",
      "userName": "Colin",
      "message": "I just called her to say sorry.",
      "type": "message",
      "switch": "no",
      "Day": 3
    },
    {
      "userId": "140000198202211138",
      "userName": "Peter",
      "message": "Good.",
      "type": "message",
      "switch": "no",
      "Day": 3
    },
    {
      "userId": "140000198202211138",
      "userName": "Peter",
      "message": "And I have all the rights before you ask me.",
      "type": "message",
      "switch": "no",
      "Day": 3
    },
    {
      "userId": "140000198202211138",
      "userName": "Peter",
      "message": "Do you need anything like money for food?",
      "type": "message",
      "switch": "no",
      "Day": 3
    },
    {
      "userId": "210000198410281948",
      "userName": "Colin",
      "message": "No.",
      "type": "message",
      "switch": "no",
      "Day": 3
    },
    {
      "userId": "140000198202211138",
      "userName": "Peter",
      "message": "Ok we have work.",
      "type": "message",
      "switch": "no",
      "Day": 3
    },
    {
      "userId": "140000198202211138",
      "userName": "Peter",
      "message": "Bye.",
      "type": "message",
      "switch": "no",
      "Day": 3
    },
    {
      "userId": "140000198202211138",
      "userName": "Note",
      "message": "Call is disconnected.",
      "type": "message",
      "switch": "no",
      "Day": 3
    },
    {
      "userId": "210000198410281948",
      "userName": "Colin",
      "message": "Hey you said she will love me as part of new wish? What is it now?",
      "type": "message",
      "switch": "no",
      "Day": 3
    },
    {
      "userId": "210000198410281948",
      "userName": "Colin",
      "message": "He says my life is worthless. I feel so depressing. I cannot even say anything to him because that is actually kind of true.",
      "type": "message",
      "switch": "no",
      "Day": 3
    },
    {
      "userId": "210000198410281948",
      "userName": "Colin",
      "message": "Peter says Amy belongs on high Tier which I stand apart in a huge gap. I am a man of no value?",
      "type": "message",
      "switch": "no",
      "Day": 3
    },
    {
      "userId": "210000198410281948",
      "userName": "Colin",
      "message": "I want to change this. I want to improve. This is story of my existence?",
      "type": "message",
      "switch": "no",
      "Day": 3
    },
    {
      "userId": "210000198410281948",
      "userName": "Colin",
      "message": "If this is really because of you not doing right thing, can you do it?",
      "type": "message",
      "switch": "no",
      "Day": 3
    },
    {
      "userId": "210000198410281948",
      "userName": "Colin",
      "message": "I really hope you can help me. Please are you listening?",
      "type": "message",
      "switch": "no",
      "Day": 3
    },
    {
      "userId": "140000198202211138",
      "userName": "Note",
      "message": "Someone knocks the door. ",
      "type": "message",
      "switch": "no",
      "Day": 3
    },
    {
      "userId": "210000198410281948",
      "userName": "Colin",
      "message": "Hi.",
      "type": "message",
      "switch": "no",
      "Day": 3
    },
    {
      "userId": "140000198202211138",
      "userName": "Neighbour",
      "message": "Hey.",
      "type": "message",
      "switch": "no",
      "Day": 3
    },
    {
      "userId": "210000198410281948",
      "userName": "Colin",
      "message": "How may I help you? ",
      "type": "message",
      "switch": "no",
      "Day": 3
    },
    {
      "userId": "140000198202211138",
      "userName": "Neighbour",
      "message": "Sorry to disturb you. My name is Ashley. I am from the next room. ",
      "type": "message",
      "switch": "no",
      "Day": 3
    },
    {
      "userId": "210000198410281948",
      "userName": "Colin",
      "message": "Nice to meet you Ashley. ",
      "type": "message",
      "switch": "no",
      "Day": 3
    },
    {
      "userId": "140000198202211138",
      "userName": "Ashley",
      "message": "Nice to meet you too.  ",
      "type": "message",
      "switch": "no",
      "interimAudioInStory": "yes",
      "audioSrc": "sound31.ogg",
      "Day": 3
    },
    {
      "userId": "140000198202211138",
      "userName": "Neighbour",
      "message": "Can I borrow some candles if you have some spare ones please?  ",
      "type": "message",
      "switch": "no",
      "Day": 3
    },
    {
      "userId": "140000198202211138",
      "userName": "Neighbour",
      "message": "You see there is some fuse problem in my room and room service isn't responding well.  ",
      "type": "message",
      "switch": "no",
      "Day": 3
    },
    {
      "userId": "210000198410281948",
      "userName": "Colin",
      "message": "Oh yeah, sure. ",
      "type": "message",
      "switch": "no",
      "Day": 3
    },
    {
      "userId": "140000198202211138",
      "userName": "Ashley",
      "message": "Thanks a lot! I don't know how much it costs. I will give you next time when I see you.  ",
      "type": "message",
      "switch": "no",
      "Day": 3
    },
    {
      "userId": "210000198410281948",
      "userName": "Colin",
      "message": "Oh never mind. Consider it as a gift for the neighbour. ",
      "type": "message",
      "switch": "no",
      "Day": 3
    },
    {
      "userId": "140000198202211138",
      "userName": "Ashley",
      "message": "Thank you. What's your name? ",
      "type": "message",
      "switch": "no",
      "Day": 3
    },
    {
      "userId": "210000198410281948",
      "userName": "Colin",
      "message": "Do you want me to call room service for you? ",
      "type": "message",
      "switch": "no",
      "Day": 3
    },
    {
      "userId": "140000198202211138",
      "userName": "Ashley",
      "message": "No thanks.  ",
      "type": "message",
      "switch": "no",
      "Day": 3
    },
    {
      "userId": "140000198202211138",
      "userName": "Ashley",
      "message": "Actually they did respond and they will be coming in an hour. But my room is dark and I am scared of dark. Haha.  ",
      "type": "message",
      "switch": "no",
      "Day": 3
    },
    {
      "userId": "210000198410281948",
      "userName": "Colin",
      "message": "Haha, wait here 1 second. ",
      "type": "message",
      "switch": "no",
      "Day": 3
    },
    {
      "userId": "140000198202211138",
      "userName": "Note",
      "message": "Colin brings a tiny candle and hands it to Ashley. ",
      "type": "message",
      "switch": "no",
      "Day": 3
    },
    {
      "userId": "140000198202211138",
      "userName": "Ashley",
      "message": "Thanks a lot. ",
      "type": "message",
      "switch": "no",
      "Day": 3
    },
    {
      "userId": "210000198410281948",
      "userName": "Colin",
      "message": "Hey, not sure if this will stay for an hour. if you are scared you can stay in my room until it gets fixed. ",
      "type": "message",
      "switch": "no",
      "Day": 3
    },
    {
      "userId": "140000198202211138",
      "userName": "Ashley",
      "message": "No thank you! I am waiting for someone in my room so I think I am fine being in my room. ",
      "type": "message",
      "switch": "no",
      "Day": 3
    },
    {
      "userId": "210000198410281948",
      "userName": "Colin",
      "message": "Ok fine. Sorry for that. Yeah I think it was inappropriate to invite you to my room. ",
      "type": "message",
      "switch": "no",
      "Day": 3
    },
    {
      "userId": "140000198202211138",
      "userName": "Ashley",
      "message": "No, not at all.  ",
      "type": "message",
      "switch": "no",
      "Day": 3
    },
    {
      "userId": "140000198202211138",
      "userName": "Ashley",
      "message": "You know what.  ",
      "type": "message",
      "switch": "no",
      "Day": 3
    },
    {
      "userId": "140000198202211138",
      "userName": "Ashley",
      "message": "If it's not an hindrance, I have no issues waiting in your room till room service comes. Maybe can I get a coffee? I didn't go to kitchen since the fuse gone. ",
      "type": "message",
      "switch": "no",
      "Day": 3
    },
    {
      "userId": "210000198410281948",
      "userName": "Colin",
      "message": "Sure, my pleasure. I will make a coffee for you. Come inside. ",
      "type": "message",
      "switch": "no",
      "Day": 3
    },
    {
      "userId": "140000198202211138",
      "userName": "Note",
      "message": "Room service is back.",
      "type": "message",
      "switch": "no",
      "Day": 3
    },
    {
      "userId": "140000198202211138",
      "userName": "Note",
      "message": "Ashley leaves after room service arrives. ",
      "type": "message",
      "switch": "no",
      "Day": 3
    },
    {
      "userId": "140000198202211138",
      "userName": "Ashley",
      "message": "They came, thank you! Sorry got to go.",
      "type": "message",
      "switch": "no",
      "Day": 3
    },
    {
      "userId": "140000198202211138",
      "userName": "Ashley",
      "message": "Will meet soon for coffee!",
      "type": "message",
      "switch": "no",
      "Day": 3
    },
    {
      "userId": "210000198410281948",
      "userName": "Colin",
      "message": "Yes, Bye! ",
      "type": "message",
      "switch": "no",
      "Day": 3
    },
    {
      "userId": "140000198202211138",
      "userName": "Ashley",
      "message": "Hey, wait.",
      "type": "message",
      "switch": "no",
      "Day": 3
    },
    {
      "userId": "210000198410281948",
      "userName": "Colin",
      "message": "Yes? ",
      "type": "message",
      "switch": "no",
      "Day": 3
    },
    {
      "userId": "140000198202211138",
      "userName": "Ashley",
      "message": "What's your name?",
      "type": "message",
      "switch": "no",
      "Day": 3
    },
    {
      "userId": "210000198410281948",
      "userName": "Colin",
      "message": "Colin Mason. ",
      "type": "message",
      "switch": "no",
      "Day": 3
    },
    {
      "userId": "140000198202211138",
      "userName": "Ashley",
      "message": "Thanks for Candle, Colin. ",
      "type": "message",
      "switch": "no",
      "Day": 3
    },
    {
      "userId": "140000198202211138",
      "userName": "Note",
      "message": "Ashley leaves after room service enters the room. ",
      "type": "message",
      "switch": "no",
      "Day": 3
    },
    {
      "userId": "210000198410281948",
      "userName": "Colin",
      "message": "(Holy shit. What was that? Room service spoiled every thing. Great timing.)",
      "type": "message",
      "switch": "no",
      "Day": 3
    },
    {
      "userId": "210000198410281948",
      "userName": "Colin",
      "message": "(Just when I thought my life is worthless, I feel so good now.)",
      "type": "message",
      "switch": "no",
      "Day": 3
    },
    {
      "userId": "210000198410281948",
      "userName": "Colin",
      "message": "(She is not as Pretty as Amy but who cares about Amy now.)",
      "type": "message",
      "switch": "no",
      "Day": 3
    },
    {
      "userId": "210000198410281948",
      "userName": "Colin",
      "message": "(I found atleast something as a purpose to wake up now. I will try to impress Ashley! She makes me feel so lively again. Looking forward for tomorrow so I will approach her! )",
      "type": "message",
      "switch": "no",
      "interimAudioInStory": "yes",
      "audioSrc": "sound1.ogg",
      "Day": 3
    },
    {
      "userId": "210000198410281948",
      "userName": "Colin",
      "message": "(She is not as Pretty as Amy but who cares about Amy now.)",
      "type": "message",
      "switch": "no",
      "Day": 3
    }
  ]
}