{
  "array": [
    {},
    {},
    {},
    {},
    {},
    {},
    {},
    {},
    {},
    {},
    {},
    {},
    {},
    {},
    {},
    {},
    {},
    {},
    {},
    {},
    {},
    {},
    {},
    {},
    {},
    {},
    {},
    {},
    {},
    {},
    {},
    {},
    {},
    {},
    {},
    {},
    {},
    {},
    {},
    {},
    {},
    {},
    {},
    {},
    {},
    {},
    {},
    {},
    {},
    {},
    {},
    {},
    {},
    {},
    {},
    {},
    {},
    {},
    {},
    {},
    {},
    {},
    {},
    {},
    {},
    {},
    {},
    {},
    {},
    {},
    {},
    {},
    {},
    {},
    {},
    {},
    {},
    {},
    {},
    {},
    {},
    {},
    {},
    {},
    {},
    {},
    {},
    {},
    {},
    {},
    {},
    {},
    {},
    {},
    {},
    {},
    {},
    {},
    {},
    {},
    {},
    {},
    {},
    {},
    {},
    {},
    {},
    {},
    {},
    {},
    {},
    {},
    {},
    {},
    {},
    {},
    {},
    {},
    {},
    {},
    {},
    {},
    {},
    {},
    {},
    {},
    {},
    {},
    {},
    {},
    {},
    {},
    {},
    {},
    {},
    {},
    {},
    {},
    {},
    {},
    {},
    {},
    {},
    {},
    {},
    {},
    {},
    {},
    {},
    {},
    {},
    {},
    {},
    {},
    {},
    {},
    {},
    {},
    {},
    {},
    {},
    {},
    {},
    {},
    {},
    {},
    {},
    {},
    {},
    {},
    {},
    {},
    {},
    {},
    {},
    {},
    {},
    {},
    {},
    {},
    {},
    {},
    {},
    {},
    {},
    {},
    {},
    {},
    {},
    {},
    {},
    {},
    {},
    {},
    {},
    {},
    {},
    {},
    {},
    {},
    {},
    {},
    {},
    {},
    {},
    {},
    {},
    {},
    {},
    {},
    {},
    {},
    {},
    {},
    {},
    {},
    {},
    {},
    {},
    {},
    {},
    {},
    {
      "userId": "210000198410281948",
      "userName": "Colin",
      "message": "Who are you?",
      "type": "message",
      "switch": "no",
      "Day": 1
    },
    {
      "userId": "140000198202211138",
      "userName": "You",
      "message": [
        {
          "userId": "210000198410281948",
          "userName": "You",
          "message": "I am a man from another dimension",
          "type": "message",
          "switch": "no",
          "Day": 1
        },
        {
          "userId": "210000198410281948",
          "userName": "You",
          "message": "It is not important to you",
          "type": "message",
          "switch": "no",
          "Day": 1
        },
        {
          "userId": "210000198410281948",
          "userName": "You",
          "message": "I will not tell that",
          "type": "message",
          "switch": "no",
          "Day": 1
        }
      ],
      "type": "choice",
      "switch": "yes",
      "Day": 1
    },
    {
      "userId": "210000198410281948",
      "userName": "Colin",
      "message": "What do you want from me? I want to know. Who are you? Why won't you tell?",
      "type": "message",
      "switch": "no",
      "Day": 1
    },
    {
      "userId": "140000198202211138",
      "userName": "You",
      "message": [
        {
          "userId": "210000198410281948",
          "userName": "You",
          "message": "I am from an another world",
          "type": "message",
          "switch": "no",
          "Day": 1
        },
        {
          "userId": "210000198410281948",
          "userName": "You",
          "message": "You won't understand it ever",
          "type": "message",
          "switch": "no",
          "Day": 1
        },
        {
          "userId": "210000198410281948",
          "userName": "You",
          "message": "Don't ask me more",
          "type": "message",
          "switch": "no",
          "Day": 1
        }
      ],
      "type": "choice",
      "switch": "yes",
      "Day": 1
    },
    {
      "userId": "210000198410281948",
      "userName": "Colin",
      "message": "If you don't want me to ask anything, why contact me? ",
      "type": "message",
      "switch": "no",
      "Day": 1
    },
    {
      "userId": "210000198410281948",
      "userName": "Colin",
      "message": "First tell me some detail about you. Maybe who you are or where you are from?",
      "type": "message",
      "switch": "no",
      "Day": 1
    },
    {
      "userId": "140000198202211138",
      "userName": "You",
      "message": [
        {
          "userId": "210000198410281948",
          "userName": "You",
          "message": " I am talking from Earth. ",
          "type": "message",
          "switch": "no",
          "Day": 1
        },
        {
          "userId": "210000198410281948",
          "userName": "You",
          "message": "You want planet details?",
          "type": "message",
          "switch": "no",
          "Day": 1
        },
        {
          "userId": "210000198410281948",
          "userName": "You",
          "message": "Like universe names or what?",
          "type": "message",
          "switch": "no",
          "Day": 1
        }
      ],
      "type": "choice",
      "switch": "yes",
      "Day": 1
    },
    {
      "userId": "210000198410281948",
      "userName": "Colin",
      "message": "Tell me anything. I don't know what it means",
      "type": "message",
      "switch": "no",
      "Day": 1
    },
    {
      "userId": "140000198202211138",
      "userName": "You",
      "message": [
        {
          "userId": "210000198410281948",
          "userName": "You",
          "message": "It is a round blue planet. What about yours?",
          "type": "message",
          "switch": "no",
          "Day": 1
        },
        {
          "userId": "210000198410281948",
          "userName": "You",
          "message": "It is in the Solar System",
          "type": "message",
          "switch": "no",
          "Day": 1
        },
        {
          "userId": "210000198410281948",
          "userName": "You",
          "message": "Maybe you know it by different names",
          "type": "message",
          "switch": "no",
          "Day": 1
        }
      ],
      "type": "choice",
      "switch": "yes",
      "Day": 1
    },
    {
      "userId": "210000198410281948",
      "userName": "Colin",
      "message": "Then tell me the name?",
      "type": "message",
      "switch": "no",
      "Day": 1
    },
    {
      "userId": "210000198410281948",
      "userName": "Colin",
      "message": "I have no idea of who is this",
      "type": "message",
      "switch": "no",
      "Day": 1
    },
    {
      "userId": "210000198410281948",
      "userName": "Colin",
      "message": "I can't comprehend what is the meaning of this. ",
      "type": "message",
      "switch": "no",
      "Day": 1
    },
    {
      "userId": "210000198410281948",
      "userName": "Colin",
      "message": "I am a contactee of an Alien now? This is crazy if true. Why did you contact me if you don't want to say anything? You are not here to declare war or something right? ",
      "type": "message",
      "switch": "no",
      "Day": 1
    },
    {
      "userId": "140000198202211138",
      "userName": "You",
      "message": [
        {
          "userId": "210000198410281948",
          "userName": "You",
          "message": "To help you, to improve you. I saw you lost hope",
          "type": "message",
          "switch": "no",
          "Day": 1
        },
        {
          "userId": "210000198410281948",
          "userName": "You",
          "message": "I am here to help myself",
          "type": "message",
          "switch": "no",
          "Day": 1
        },
        {
          "userId": "210000198410281948",
          "userName": "You",
          "message": "I am afraid I am not supposed to tell you",
          "type": "message",
          "switch": "no",
          "Day": 1
        }
      ],
      "type": "choice",
      "switch": "no",
      "Day": 1
    },
    {
      "userId": "210000198410281948",
      "userName": "Colin",
      "message": "I know you are not going to tell me. Can you just help me?",
      "type": "message",
      "switch": "no",
      "Day": 1,
      "interimAudioInStory": "yes",
      "audioSrc": "soud6.ogg"
    },
    {
      "userId": "140000198202211138",
      "userName": "You",
      "message": [
        {
          "userId": "210000198410281948",
          "userName": "You",
          "message": "I can help you",
          "type": "message",
          "switch": "no",
          "Day": 1
        },
        {
          "userId": "210000198410281948",
          "userName": "You",
          "message": "What do you need now?",
          "type": "message",
          "switch": "no",
          "Day": 1
        },
        {
          "userId": "210000198410281948",
          "userName": "You",
          "message": "I will think about it",
          "type": "message",
          "switch": "no",
          "Day": 1
        }
      ],
      "type": "choice",
      "switch": "no",
      "Day": 1
    },
    {
      "userId": "210000198410281948",
      "userName": "Colin",
      "message": "I want to get some powers. Can you give me? Do you have the ability to do that?",
      "type": "message",
      "switch": "no",
      "Day": 1
    },
    {
      "userId": "140000198202211138",
      "userName": "You",
      "message": [
        {
          "userId": "210000198410281948",
          "userName": "You",
          "message": "Sure I can",
          "type": "message",
          "switch": "no",
          "Day": 1
        },
        {
          "userId": "210000198410281948",
          "userName": "You",
          "message": "That is right, I can give",
          "type": "message",
          "switch": "no",
          "Day": 1
        },
        {
          "userId": "210000198410281948",
          "userName": "You",
          "message": " 1. I can give you 7 powers of your wish. 2. I can increase luck. ",
          "type": "message",
          "switch": "no",
          "Day": 1
        }
      ],
      "type": "choice",
      "switch": "no",
      "Day": 1
    },
    {
      "userId": "210000198410281948",
      "userName": "Colin",
      "message": "Please give all the powers to me. But are there others like you?",
      "type": "message",
      "switch": "no",
      "Day": 1
    },
    {
      "userId": "140000198202211138",
      "userName": "You",
      "message": [
        {
          "userId": "210000198410281948",
          "userName": "You",
          "message": "Certainly!",
          "type": "message",
          "switch": "no",
          "Day": 1
        },
        {
          "userId": "210000198410281948",
          "userName": "You",
          "message": "I don't know",
          "type": "message",
          "switch": "no",
          "Day": 1
        },
        {
          "userId": "210000198410281948",
          "userName": "You",
          "message": "No",
          "type": "message",
          "switch": "no",
          "Day": 1
        }
      ],
      "type": "choice",
      "switch": "yes",
      "Day": 1
    },
    {
      "userId": "210000198410281948",
      "userName": "Colin",
      "userAvatar": "./assets/user.jpg",
      "time": 1488349800000,
      "message": " I can't believe I started hallucinating. I have been watching lot of movies. ",
      "type": "messagemood",
      "switch": "no",
      "interimAudioInStory": "yes",
      "audioSrc": "sound1.ogg",
      "Day": 1,
      "behaviours": {
        "happiness": "0.5",
        "health": "0.5",
        "romance": "0.2",
        "mood": "Motivated",
        "wantedLevel": "0"
      }
    },
    {
      "userId": "210000198410281948",
      "userName": "Colin",
      "message": " And what do you mean by powers?  ",
      "type": "message",
      "switch": "no",
      "Day": 1
    },
    {
      "userId": "210000198410281948",
      "userName": "You",
      "message": "You have been given 21 powers. You can activate any 7 powers and use the way you want.",
      "type": "message",
      "switch": "no",
      "Day": 1
    },
    {
      "userId": "210000198410281948",
      "userName": "You",
      "message": "Magnetism, Levitation, Night vision, Invisibility, Super senses, Telepathy, Teleportation, Superhuman strength, Telekinesis, Mind control, Super stretching, Flying, Super speed, Medium awareness / Fourth wall awareness, Shape shifting, Pyrokinesis, Muscle mass, Manipulating dreams, Time travel, Weather modification, and Wall crawling. You need to ask me to activate these. ",
      "type": "message",
      "switch": "no",
      "Day": 1
    },
    {
      "userId": "210000198410281948",
      "userName": "Colin",
      "message": " Shut up, I am going to sleep. They say hallucinations come mostly due to lack of sleep.  ",
      "type": "message",
      "switch": "no",
      "Day": 1
    },
    {
      "userId": "140000198202211138",
      "userName": "Note",
      "message": "Colin goes to bed hoping the voices will go away once he gets a good sleep.",
      "type": "message",
      "switch": "no",
      "Day": 1
    },
    {
      "type": "interimImage",
      "interimImageInStory": "yes",
      "imageSrc": "daya.jpeg",
      "Day": 1
    },
    {
      "userId": "140000198202211138",
      "userName": "Note",
      "message": "To be continued.. ",
      "type": "message",
      "switch": "no",
      "Day": 1
    },
    {
      "userId": "210000198410281948",
      "userName": "Colin",
      "message": "  You are right but I refuse. It doesn't sound practical at all. I was born to be ordinary and I will live like this ",
      "type": "messagemood",
      "switch": "no",
      "Day": 1,
      "behaviours": {
        "happiness": "0.5",
        "health": "0.5",
        "romance": "0.2",
        "mood": "Motivated",
        "wantedLevel": "0"
      }
    }
  ]
}