{
  "array": [
    {},
    {},
    {},
    {},
    {},
    {},
    {},
    {},
    {},
    {},
    {},
    {},
    {},
    {},
    {},
    {},
    {},
    {},
    {},
    {},
    {},
    {},
    {},
    {},
    {},
    {},
    {},
    {},
    {},
    {},
    {},
    {},
    {},
    {},
    {},
    {},
    {},
    {},
    {},
    {},
    {},
    {},
    {},
    {},
    {},
    {},
    {},
    {},
    {},
    {},
    {},
    {},
    {},
    {},
    {},
    {},
    {},
    {},
    {},
    {},
    {},
    {},
    {},
    {},
    {},
    {},
    {},
    {},
    {},
    {},
    {},
    {},
    {},
    {},
    {},
    {},
    {},
    {},
    {},
    {},
    {},
    {},
    {},
    {},
    {},
    {},
    {},
    {},
    {},
    {},
    {},
    {},
    {},
    {},
    {},
    {},
    {},
    {},
    {},
    {},
    {},
    {},
    {},
    {},
    {},
    {},
    {},
    {},
    {},
    {},
    {},
    {},
    {},
    {},
    {},
    {},
    {},
    {},
    {},
    {},
    {},
    {},
    {},
    {},
    {},
    {},
    {},
    {},
    {},
    {},
    {},
    {},
    {},
    {},
    {},
    {},
    {},
    {},
    {},
    {},
    {},
    {},
    {},
    {},
    {},
    {},
    {},
    {},
    {
      "userId": "140000198202211138",
      "userName": "You",
      "message": [
        {
          "userId": "210000198410281948",
          "userName": "You",
          "message": "You tell her the truth. ",
          "type": "message",
          "switch": "no",
          "Day": 3
        },
        {
          "userId": "210000198410281948",
          "userName": "You",
          "message": "Tell her some lies. ",
          "type": "message",
          "switch": "no",
          "Day": 3
        },
        {
          "userId": "210000198410281948",
          "userName": "You",
          "message": "I don't know. ",
          "type": "message",
          "switch": "no",
          "Day": 3
        }
      ],
      "type": "choice",
      "switch": "yes",
      "Day": 3
    },
    {
      "userId": "210000198410281948",
      "userName": "Colin",
      "message": "What type of lies? Give some ideas to tell.  ",
      "type": "message",
      "switch": "no",
      "Day": 3
    },
    {
      "userId": "140000198202211138",
      "userName": "You",
      "message": [
        {
          "userId": "210000198410281948",
          "userName": "You",
          "message": "You tell something that comes to mind. ",
          "type": "message",
          "switch": "no",
          "Day": 3
        },
        {
          "userId": "210000198410281948",
          "userName": "You",
          "message": "Tell you got this from someone.",
          "type": "message",
          "switch": "no",
          "Day": 3
        },
        {
          "userId": "210000198410281948",
          "userName": "You",
          "message": "I don't know. ",
          "type": "message",
          "switch": "no",
          "Day": 3
        }
      ],
      "type": "choice",
      "switch": "no",
      "Day": 3
    },
    {
      "userId": "210000198410281948",
      "userName": "Colin",
      "message": "Hey you, I am a banker. I work at Rentri Bank, and my boss asked me to deposit this. I am going to deposit this in the bank today. I am a banker.",
      "type": "message",
      "switch": "no",
      "Day": 3
    },
    {
      "type": "interimImage",
      "interimImageInStory": "yes",
      "imageSrc": "day03_23.png",
      "Day": 3
    },
    {
      "userId": "140000198202211138",
      "userName": "Ash",
      "message": "What are you saying?  ",
      "type": "message",
      "switch": "no",
      "Day": 3
    },
    {
      "userId": "210000198410281948",
      "userName": "Colin",
      "message": "I am telling you the truth. You have to trust me.  ",
      "type": "message",
      "switch": "no",
      "Day": 3
    },
    {
      "userId": "140000198202211138",
      "userName": "Ash",
      "message": "You are making me scared. Can I leave? Can you allow me, I want to leave.  ",
      "type": "message",
      "switch": "no",
      "Day": 3
    },
    {
      "userId": "210000198410281948",
      "userName": "Colin",
      "message": "Look she wants to leave now. What should I do?  ",
      "type": "message",
      "switch": "no",
      "Day": 3
    },
    {
      "userId": "140000198202211138",
      "userName": "You",
      "message": [
        {
          "userId": "210000198410281948",
          "userName": "You",
          "message": "Do not allow her. ",
          "type": "message",
          "switch": "no",
          "Day": 3
        },
        {
          "userId": "210000198410281948",
          "userName": "You",
          "message": "Ask her if she will go to the police. ",
          "type": "message",
          "switch": "no",
          "Day": 3
        },
        {
          "userId": "210000198410281948",
          "userName": "You",
          "message": "I don't know. ",
          "type": "message",
          "switch": "no",
          "Day": 3
        }
      ],
      "type": "choice",
      "switch": "yes",
      "Day": 3
    },
    {
      "userId": "210000198410281948",
      "userName": "Colin",
      "message": "Ash will you go to the police?  ",
      "type": "message",
      "switch": "no",
      "Day": 3
    },
    {
      "userId": "140000198202211138",
      "userName": "Ash",
      "message": "No. ",
      "type": "message",
      "switch": "no",
      "Day": 3
    },
    {
      "userId": "210000198410281948",
      "userName": "Colin",
      "message": "She says she won't go to the police. ",
      "type": "message",
      "switch": "no",
      "Day": 3
    },
    {
      "userId": "140000198202211138",
      "userName": "Ash",
      "message": "Who are you talking to? None is there.  ",
      "type": "message",
      "switch": "no",
      "Day": 3
    },
    {
      "userId": "210000198410281948",
      "userName": "Colin",
      "message": "I think she won't inform to the police. But how to make sure she won't? ",
      "type": "message",
      "switch": "no",
      "Day": 3
    },
    {
      "userId": "140000198202211138",
      "userName": "You",
      "message": [
        {
          "userId": "210000198410281948",
          "userName": "You",
          "message": "Threaten her. ",
          "type": "message",
          "switch": "no",
          "Day": 3
        },
        {
          "userId": "210000198410281948",
          "userName": "You",
          "message": "Cry and plead her to stay so that she doesn't leave. ",
          "type": "message",
          "switch": "no",
          "Day": 3
        },
        {
          "userId": "210000198410281948",
          "userName": "You",
          "message": "Try to make her fall in love. ",
          "type": "message",
          "switch": "no",
          "Day": 3
        }
      ],
      "type": "choice",
      "switch": "yes",
      "Day": 3
    },
    {
      "userId": "210000198410281948",
      "userName": "Colin",
      "message": "I never like crying. That too to a girl. But I am doing as you said that.   ",
      "type": "message",
      "switch": "no",
      "Day": 3
    },
    {
      "userId": "210000198410281948",
      "userName": "Colin",
      "message": "Ash, Look at me now. I have something to say.",
      "type": "message",
      "switch": "no",
      "Day": 3
    },
    {
      "userId": "140000198202211138",
      "userName": "Note",
      "message": "Colin starts crying and tries to keep his face worried. ",
      "type": "message",
      "switch": "no",
      "Day": 3
    },
    {
      "userId": "210000198410281948",
      "userName": "Colin",
      "message": "Ash I am really in pain. Please don't say this to anyone. This could cause me huge trouble. ",
      "type": "message",
      "switch": "no",
      "Day": 3
    },
    {
      "userId": "140000198202211138",
      "userName": "Ash",
      "message": "How did you get all this money?",
      "type": "message",
      "switch": "no",
      "Day": 3
    },
    {
      "userId": "210000198410281948",
      "userName": "Colin",
      "message": "You don't need to know. I don't want you to get into any issues. I am crying as it could cause you danger.  ",
      "type": "message",
      "switch": "no",
      "Day": 3
    },
    {
      "userId": "140000198202211138",
      "userName": "Ash",
      "message": "Where are the tears? ",
      "type": "message",
      "switch": "no",
      "Day": 3
    },
    {
      "userId": "210000198410281948",
      "userName": "Colin",
      "message": "I know you are a good peron with good heart. We should help each other as we are neighbours. I will become more anxious if you leave this room before hearing whole story. Please promise you won't leave until you hear whole story. ",
      "type": "message",
      "switch": "no",
      "Day": 3
    },
    {
      "userId": "140000198202211138",
      "userName": "Note",
      "message": "Ash pushes and runs out of the room. ",
      "type": "message",
      "switch": "no",
      "Day": 3
    },
    {
      "type": "interimImage",
      "interimImageInStory": "yes",
      "imageSrc": "day03_24.png",
      "Day": 3
    },
    {
      "userId": "210000198410281948",
      "userName": "Colin",
      "message": "This is bad now.",
      "type": "message",
      "switch": "no",
      "Day": 3
    },
    {
      "type": "interimImage",
      "interimImageInStory": "yes",
      "imageSrc": "day03_25.png",
      "Day": 3
    },
    {
      "userId": "210000198410281948",
      "userName": "Colin",
      "message": "I got caught. I am in a trap.",
      "type": "message",
      "switch": "no",
      "Day": 3
    },
    {
      "type": "interimImage",
      "interimImageInStory": "yes",
      "imageSrc": "day03_26.png",
      "Day": 3
    },
    {
      "userId": "210000198410281948",
      "userName": "Colin",
      "message": "Are you real? That's a stupid question. You are real.  ",
      "type": "message",
      "switch": "no",
      "Day": 3
    },
    {
      "userId": "210000198410281948",
      "userName": "Colin",
      "message": "So I can really make use of powers?  ",
      "type": "message",
      "switch": "no",
      "Day": 3
    },
    {
      "userId": "210000198410281948",
      "userName": "Colin",
      "message": "Which power did I use? I would have been careful had I known it works.  ",
      "type": "message",
      "switch": "no",
      "Day": 3
    },
    {
      "userId": "210000198410281948",
      "userName": "Colin",
      "message": "I cannot undertsand. How is becoming rich a superpower?  ",
      "type": "message",
      "switch": "no",
      "Day": 3
    },
    {
      "userId": "140000198202211138",
      "userName": "You",
      "message": [
        {
          "userId": "210000198410281948",
          "userName": "You",
          "message": "It is not. ",
          "type": "message",
          "switch": "no",
          "Day": 3
        },
        {
          "userId": "210000198410281948",
          "userName": "You",
          "message": "Who said it is a power? ",
          "type": "message",
          "switch": "no",
          "Day": 3
        },
        {
          "userId": "210000198410281948",
          "userName": "You",
          "message": "I don't know. ",
          "type": "message",
          "switch": "no",
          "Day": 3
        }
      ],
      "type": "choice",
      "switch": "no",
      "Day": 3
    },
    {
      "userId": "210000198410281948",
      "userName": "Colin",
      "message": "Hey, I am getting scared again. who are you? You are not going to hurt me right?  ",
      "type": "message",
      "switch": "no",
      "Day": 3
    },
    {
      "userId": "210000198410281948",
      "userName": "Colin",
      "message": "Please answer me.  ",
      "type": "message",
      "switch": "no",
      "Day": 3
    },
    {
      "userId": "210000198410281948",
      "userName": "Colin",
      "message": "My head is about to explode with lot of questions.  ",
      "type": "message",
      "switch": "no",
      "Day": 3
    },
    {
      "userId": "210000198410281948",
      "userName": "Colin",
      "message": "I am even more worried that Ashley is bringing cops.  ",
      "type": "message",
      "switch": "no",
      "Day": 3
    },
    {
      "userId": "210000198410281948",
      "userName": "Colin",
      "message": "I am worried about the policemen as if I committed a crime.  ",
      "type": "message",
      "switch": "no",
      "Day": 3
    },
    {
      "userId": "210000198410281948",
      "userName": "Colin",
      "message": "I didn't commit any crime.  ",
      "type": "message",
      "switch": "no",
      "Day": 3
    },
    {
      "userId": "210000198410281948",
      "userName": "Colin",
      "message": "Or did I?  ",
      "type": "message",
      "switch": "no",
      "Day": 3
    },
    {
      "userId": "140000198202211138",
      "userName": "You",
      "message": [
        {
          "userId": "210000198410281948",
          "userName": "You",
          "message": "Technically you did. ",
          "type": "message",
          "switch": "no",
          "Day": 3
        },
        {
          "userId": "210000198410281948",
          "userName": "You",
          "message": "I am afraid so. ",
          "type": "message",
          "switch": "no",
          "Day": 3
        },
        {
          "userId": "210000198410281948",
          "userName": "You",
          "message": "I don't know. ",
          "type": "message",
          "switch": "no",
          "Day": 3
        }
      ],
      "type": "choice",
      "switch": "no",
      "Day": 3
    },
    {
      "userId": "210000198410281948",
      "userName": "Colin",
      "message": "Tell me something. Didn't the money just get created? How is that a crime? I didn't start spending it. Did I even touch it? ",
      "type": "message",
      "switch": "no",
      "Day": 3
    },
    {
      "userId": "210000198410281948",
      "userName": "Colin",
      "message": "Don't tell me it was someone else's.  ",
      "type": "message",
      "switch": "no",
      "Day": 3
    },
    {
      "userId": "140000198202211138",
      "userName": "You",
      "message": [
        {
          "userId": "210000198410281948",
          "userName": "You",
          "message": "Did you see creating money as a superpower in the list? ",
          "type": "message",
          "switch": "no",
          "Day": 3
        },
        {
          "userId": "210000198410281948",
          "userName": "You",
          "message": "I am afraid it was someone else's money. ",
          "type": "message",
          "switch": "no",
          "Day": 3
        },
        {
          "userId": "210000198410281948",
          "userName": "You",
          "message": "I am not sure about this. ",
          "type": "message",
          "switch": "no",
          "Day": 3
        }
      ],
      "type": "choice",
      "switch": "no",
      "Day": 3
    },
    {
      "userId": "210000198410281948",
      "userName": "Colin",
      "message": "What power is it then? ",
      "type": "message",
      "switch": "no",
      "Day": 3
    },
    {
      "userId": "140000198202211138",
      "userName": "You",
      "message": [
        {
          "userId": "210000198410281948",
          "userName": "You",
          "message": "You asked me to activate Telekinesis. It was there on the list.",
          "type": "message",
          "switch": "no",
          "Day": 3
        },
        {
          "userId": "210000198410281948",
          "userName": "You",
          "message": "Power to move the objects using mind. ",
          "type": "message",
          "switch": "no",
          "Day": 3
        },
        {
          "userId": "210000198410281948",
          "userName": "You",
          "message": "You moved money from a bank or neighbour's locker. ",
          "type": "message",
          "switch": "no",
          "Day": 3
        }
      ],
      "type": "choice",
      "switch": "no",
      "Day": 3
    },
    {
      "userId": "210000198410281948",
      "userName": "Colin",
      "message": "It is a big crime!!  ",
      "type": "message",
      "switch": "no",
      "Day": 3
    },
    {
      "userId": "210000198410281948",
      "userName": "Colin",
      "message": "I thought for a moment it was a cool power that you created money.  ",
      "type": "message",
      "switch": "no",
      "Day": 3
    },
    {
      "userId": "210000198410281948",
      "userName": "Colin",
      "message": "In fact even then I cannot use it. If I used then that would have been crime. ",
      "type": "message",
      "switch": "no",
      "Day": 3
    },
    {
      "userId": "210000198410281948",
      "userName": "Colin",
      "message": "I want to carefully choose my powers. ",
      "type": "message",
      "switch": "no",
      "Day": 3
    },
    {
      "userId": "210000198410281948",
      "userName": "Colin",
      "message": "I have not used telekinesis in the right way I think. ",
      "type": "message",
      "switch": "no",
      "Day": 3
    },
    {
      "userId": "210000198410281948",
      "userName": "Colin",
      "message": "In fact what I did was cheap. To steal money from others.  ",
      "type": "message",
      "switch": "no",
      "Day": 3
    },
    {
      "userId": "210000198410281948",
      "userName": "Colin",
      "message": "It was nothing more than a glorified pickpocket. ",
      "type": "message",
      "switch": "no",
      "Day": 3
    },
    {
      "userId": "210000198410281948",
      "userName": "Colin",
      "message": "No more asking for money. If I want money, let me earn it. ",
      "type": "message",
      "switch": "no",
      "Day": 3
    },
    {
      "userId": "210000198410281948",
      "userName": "Colin",
      "message": "Alright. ",
      "type": "message",
      "switch": "no",
      "Day": 3
    },
    {
      "userId": "210000198410281948",
      "userName": "Colin",
      "message": "I know things work now, there is no point worrying about it. ",
      "type": "message",
      "switch": "no",
      "Day": 3
    },
    {
      "userId": "210000198410281948",
      "userName": "Colin",
      "message": "On the positive side, I can use the powers to solve the demon case. ",
      "type": "message",
      "switch": "no",
      "Day": 3
    },
    {
      "userId": "210000198410281948",
      "userName": "Colin",
      "message": "Police might come here and knock the door due to Ashley but it is already late, and I cannot go out as it is raining.  ",
      "type": "messagemood",
      "switch": "no",
      "Day": 3,
      "behaviours": {
        "happiness": "0",
        "health": "0.5",
        "romance": "0.1",
        "fear": "0.6",
        "wish": "0",
        "wantedLevel": "1",
        "balance": "$3017.00"
      }
    },
    {
      "userId": "210000198410281948",
      "userName": "Note",
      "message": "Go back and check the change in wanted level",
      "type": "message",
      "switch": "no",
      "Day": 3
    },
    {
      "userId": "210000198410281948",
      "userName": "Colin",
      "message": "I want to stay here and still not get arrested. They should not see me.  ",
      "type": "message",
      "switch": "no",
      "Day": 3
    },
    {
      "userId": "210000198410281948",
      "userName": "Colin",
      "message": "Can I use the power of invisibility? I want to use Invisibility.",
      "type": "message",
      "switch": "no",
      "Day": 3
    },
    {
      "userId": "210000198410281948",
      "userName": "Colin",
      "message": "Activate this.  ",
      "type": "message",
      "switch": "no",
      "Day": 3
    },
    {
      "type": "interimImage",
      "interimImageInStory": "yes",
      "imageSrc": "day03_26.png",
      "Day": 3
    },
    {
      "userId": "210000198410281948",
      "userName": "You",
      "message": "Done.",
      "type": "message",
      "switch": "no",
      "interimAudioInStory": "yes",
      "audioSrc": "sound1.ogg",
      "Day": 3
    },
    {
      "type": "interimImage",
      "interimImageInStory": "yes",
      "imageSrc": "daye3.jpeg",
      "Day": 3
    },
    {
      "userId": "210000198410281948",
      "userName": "Colin",
      "message": "We will try rescuers.",
      "type": "message",
      "switch": "no",
      "Day": 3
    }
  ]
}