{
    "array": [
        {
            "graphicId": "1"
        },
        {
            "graphicId": "2"
        },
        {
            "graphicId": "3"
        },
        {
            "graphicId": "4"
        },
        {
            "graphicId": "5",
            "interimAudioInStory": "yes",
            "audioSrc": "sound4.ogg"
        },
        {
            "graphicId": "6"
        },
        {
            "graphicId": "7"
        },
        {
            "graphicId": "8"
        },
        {
            "graphicId": "9"
        },
        {
            "graphicId": "10"
        },
        {
            "graphicId": "11"
        },
        {
            "graphicId": "12"
        },
        {
            "graphicId": "13"
        },
        {
            "graphicId": "14"
        },
        {
            "graphicId": "15"
        },
        {
            "graphicId": "16"
        },
        {
            "graphicId": "17"
        },
        {
            "graphicId": "18"
        },
        {
            "graphicId": "19"
        },
        {
            "graphicId": "20"
        },
        {
            "graphicId": "21"
        },
        {
            "graphicId": "22"
        },
        {
            "graphicId": "23"
        },
        {
            "graphicId": "24"
        },
        {
            "graphicId": "25"
        },
        {
            "graphicId": "26"
        },
        {
            "graphicId": "27"
        },
        {
            "graphicId": "28"
        },
        {
            "graphicId": "29"
        },
        {
            "graphicId": "30"
        },
        {
            "graphicId": "31"
        },
        {
            "graphicId": "32"
        },
        {
            "graphicId": "33"
        },
        {
            "graphicId": "34"
        },
        {
            "graphicId": "35"
        },
        {
            "graphicId": "36"
        },
        {
            "graphicId": "37"
        },
        {
            "graphicId": "38"
        },
        {
            "graphicId": "39"
        },
        {
            "graphicId": "40"
        },
        {
            "graphicId": "41"
        },
        {
            "graphicId": "42"
        },
        {
            "graphicId": "43"
        },
        {
            "graphicId": "44"
        },
        {
            "graphicId": "45"
        },
        {
            "graphicId": "46"
        },
        {
            "graphicId": "47"
        },
        {
            "graphicId": "48"
        },
        {
            "graphicId": "49"
        },
        {
            "graphicId": "50"
        },
        {
            "graphicId": "51"
        },
        {
            "graphicId": "52"
        },
        {
            "graphicId": "53"
        },
        {
            "graphicId": "54"
        },
        {
            "graphicId": "55"
        },
        {
            "graphicId": "56"
        },
        {
            "graphicId": "57"
        },
        {
            "graphicId": "58"
        },
        {
            "graphicId": "59"
        },
        {
            "graphicId": "60"
        },
        {
            "graphicId": "61"
        },
        {
            "graphicId": "62"
        },
        {
            "graphicId": "63"
        }
    ]
}