<?xml version="1.0" encoding="iso-8859-1"?>
<!-- Generator: Adobe Illustrator 19.0.0, SVG Export Plug-In . SVG Version: 6.00 Build 0)  -->
<svg version="1.1" id="Capa_1" xmlns="http://www.w3.org/2000/svg" xmlns:xlink="http://www.w3.org/1999/xlink" x="0px" y="0px"
	 viewBox="0 0 512 512" style="enable-background:new 0 0 512 512;" xml:space="preserve">
<polyline style="fill:#F9EED7;" points="352.054,369.581 352.054,512 65.805,512 65.805,61.347 352.054,61.347 352.054,304.557 "/>
<g>
	<path style="fill:#494B5B;" d="M208.926,176.479c-1.311,0-2.623-0.328-3.807-0.986l-27.585-15.325l-27.585,15.325
		c-2.368,1.316-5.245,1.316-7.612,0l-31.39-17.44c-3.784-2.102-5.146-6.873-3.044-10.657c2.101-3.784,6.87-5.148,10.656-3.045
		l27.583,15.326l27.585-15.325c2.368-1.316,5.245-1.316,7.612,0l27.585,15.325l27.585-15.325c2.368-1.316,5.246-1.316,7.611,0
		l27.59,15.325l27.59-15.325c3.784-2.102,8.555-0.739,10.656,3.045c2.101,3.784,0.738,8.555-3.046,10.656l-31.396,17.44
		c-2.366,1.316-5.245,1.316-7.61,0l-27.59-15.325l-27.585,15.325C211.548,176.151,210.237,176.479,208.926,176.479z"/>
	<path style="fill:#494B5B;" d="M146.142,279.583c-1.311,0-2.623-0.328-3.807-0.986l-31.39-17.44
		c-3.784-2.102-5.146-6.873-3.044-10.657c2.101-3.784,6.87-5.148,10.656-3.045l27.583,15.326l27.585-15.325
		c2.368-1.316,5.245-1.316,7.612,0l27.585,15.325l27.585-15.325c2.368-1.316,5.246-1.316,7.611,0l27.59,15.325l27.59-15.325
		c3.784-2.102,8.555-0.739,10.656,3.045c2.101,3.784,0.738,8.555-3.046,10.656l-31.396,17.44c-2.366,1.316-5.245,1.316-7.61,0
		l-27.59-15.325l-27.585,15.325c-2.368,1.316-5.245,1.316-7.612,0l-27.585-15.325l-27.585,15.325
		C148.765,279.254,147.453,279.583,146.142,279.583z"/>
	<path style="fill:#494B5B;" d="M146.142,228.031c-1.311,0-2.623-0.328-3.807-0.986l-31.39-17.44
		c-3.784-2.102-5.146-6.873-3.044-10.657c2.101-3.784,6.873-5.147,10.656-3.045l27.583,15.326l27.585-15.325
		c2.368-1.316,5.245-1.316,7.612,0l27.585,15.327l27.585-15.327c2.368-1.316,5.245-1.316,7.612,0l27.589,15.327l27.59-15.327
		c3.784-2.102,8.555-0.739,10.656,3.045c2.101,3.784,0.738,8.555-3.045,10.656l-31.396,17.44c-2.368,1.316-5.246,1.316-7.611,0
		l-27.59-15.327l-27.585,15.327c-2.368,1.316-5.245,1.316-7.612,0l-27.585-15.327l-27.585,15.327
		C148.765,227.703,147.453,228.031,146.142,228.031z"/>
</g>
<path style="fill:#F9EED7;" d="M382.728,30.668c0,1.39-0.094,2.759-0.282,4.096c-0.899,6.823-4.065,12.946-8.704,17.596
	c-5.548,5.548-13.218,8.986-21.682,8.986H65.801V0h286.26C368.998,0,382.728,13.73,382.728,30.668z"/>
<path style="fill:#E8DBC4;" d="M382.446,34.764c-0.899,6.823-4.065,12.946-8.704,17.596c-5.548,5.548-13.218,8.986-21.682,8.986
	H65.801V34.764H382.446z"/>
<path style="fill:#494B5B;" d="M278.462,418.503c-2.006,0-4.011-0.765-5.542-2.296c-3.06-3.06-3.06-8.023,0.001-11.082
	l14.778-14.777c3.06-3.06,8.023-3.06,11.082,0c3.059,3.06,3.06,8.023-0.001,11.082l-14.777,14.777
	C282.474,417.737,280.467,418.503,278.462,418.503z"/>
<path style="fill:#EF4152;" d="M65.803,61.342c16.939,0,30.67-13.731,30.67-30.67l0,0c0-16.939-13.731-30.67-30.67-30.67l0,0
	c-25.094,0-45.437,20.343-45.437,45.437v420.295h45.437"/>
<g>
	<path style="fill:#34ABE0;" d="M400.217,371.32c-4.329,0-7.837-3.509-7.837-7.837c0-19.271,9.551-37.191,25.548-47.935
		l49.453-33.215c4.831-3.244,7.924-8.427,8.488-14.218s-1.473-11.472-5.588-15.587l-3.199-3.198c-3.06-3.061-3.06-8.023,0-11.082
		c3.062-3.061,8.023-3.061,11.083,0l3.198,3.198c7.44,7.44,11.124,17.714,10.105,28.187c-1.02,10.473-6.613,19.846-15.348,25.712
		l-49.453,33.215c-11.655,7.827-18.613,20.883-18.613,34.924C408.053,367.812,404.545,371.32,400.217,371.32z"/>
	<path style="fill:#34ABE0;" d="M288.016,401.112L288.016,401.112c-8.978-8.978-8.978-23.532,0-32.51l162.548-162.547l32.51,32.51
		L320.525,401.112C311.548,410.09,296.993,410.09,288.016,401.112z"/>
</g>
<g>
</g>
<g>
</g>
<g>
</g>
<g>
</g>
<g>
</g>
<g>
</g>
<g>
</g>
<g>
</g>
<g>
</g>
<g>
</g>
<g>
</g>
<g>
</g>
<g>
</g>
<g>
</g>
<g>
</g>
</svg>
